(module EMI_Filter (layer F.Cu) (tedit 5D3AA542)
  (fp_text reference REF** (at 0 -5.08) (layer F.SilkS)
    (effects (font (size 1 1) (thickness 0.15)))
  )
  (fp_text value EMI_Filter (at 0 6.35) (layer F.Fab)
    (effects (font (size 1 1) (thickness 0.15)))
  )
  (fp_line (start -15.24 -13.97) (end 15.24 -13.97) (layer F.SilkS) (width 0.12))
  (fp_line (start 15.24 -13.97) (end 15.24 13.97) (layer F.SilkS) (width 0.12))
  (fp_line (start 15.24 13.97) (end -15.24 13.97) (layer F.SilkS) (width 0.12))
  (fp_line (start -15.24 13.97) (end -15.24 -13.97) (layer F.SilkS) (width 0.12))
  (pad 3 thru_hole circle (at -9.652 9.144) (size 2.8 2.8) (drill 1.2) (layers *.Cu *.Mask))
  (pad 4 thru_hole circle (at -9.652 -9.017) (size 2.8 2.8) (drill 1.2) (layers *.Cu *.Mask))
  (pad 1 thru_hole circle (at 12.192 10.795) (size 2.8 2.8) (drill 1.2) (layers *.Cu *.Mask))
  (pad 2 thru_hole circle (at 12.192 -10.541) (size 2.8 2.8) (drill 1.2) (layers *.Cu *.Mask))
)
