EESchema Schematic File Version 4
LIBS:TP5-Fuente-Conmutada-cache
EELAYER 29 0
EELAYER END
$Descr A4 11693 8268
encoding utf-8
Sheet 1 1
Title "Fuente Conmutada 24V 2.5A"
Date ""
Rev ""
Comp ""
Comment1 ""
Comment2 ""
Comment3 ""
Comment4 ""
$EndDescr
$Comp
L Regulator_Controller:TL494 U1
U 1 1 5D313FB1
P 6900 2300
F 0 "U1" H 6900 3181 50  0000 C CNN
F 1 "TL494" H 6900 3090 50  0000 C CNN
F 2 "Package_DIP:DIP-16_W7.62mm_LongPads" H 6900 2300 50  0001 C CNN
F 3 "http://www.ti.com/lit/ds/symlink/tl494.pdf" H 6900 2300 50  0001 C CNN
	1    6900 2300
	1    0    0    -1  
$EndComp
$Comp
L power:GND #PWR0101
U 1 1 5D314E50
P 6900 3050
F 0 "#PWR0101" H 6900 2800 50  0001 C CNN
F 1 "GND" H 6905 2877 50  0000 C CNN
F 2 "" H 6900 3050 50  0001 C CNN
F 3 "" H 6900 3050 50  0001 C CNN
	1    6900 3050
	1    0    0    -1  
$EndComp
Wire Wire Line
	6900 2900 6900 3050
$Comp
L power:GND #PWR0102
U 1 1 5D31537C
P 5850 1950
F 0 "#PWR0102" H 5850 1700 50  0001 C CNN
F 1 "GND" H 5855 1777 50  0000 C CNN
F 2 "" H 5850 1950 50  0001 C CNN
F 3 "" H 5850 1950 50  0001 C CNN
	1    5850 1950
	1    0    0    -1  
$EndComp
Wire Wire Line
	6400 1900 6100 1900
Wire Wire Line
	5850 1900 5850 1950
Wire Wire Line
	6400 2000 6100 2000
Wire Wire Line
	6100 2000 6100 1900
Connection ~ 6100 1900
Wire Wire Line
	6100 1900 5850 1900
$Comp
L power:+12V #PWR0103
U 1 1 5D316E14
P 6900 1300
F 0 "#PWR0103" H 6900 1150 50  0001 C CNN
F 1 "+12V" H 6915 1473 50  0000 C CNN
F 2 "" H 6900 1300 50  0001 C CNN
F 3 "" H 6900 1300 50  0001 C CNN
	1    6900 1300
	1    0    0    -1  
$EndComp
Wire Wire Line
	6900 1300 6900 1600
Wire Wire Line
	7400 2200 7500 2200
Wire Wire Line
	7500 2200 7500 2100
Wire Wire Line
	7500 2100 7400 2100
$Comp
L power:+12V #PWR0104
U 1 1 5D317E01
P 7500 1950
F 0 "#PWR0104" H 7500 1800 50  0001 C CNN
F 1 "+12V" H 7515 2123 50  0000 C CNN
F 2 "" H 7500 1950 50  0001 C CNN
F 3 "" H 7500 1950 50  0001 C CNN
	1    7500 1950
	1    0    0    -1  
$EndComp
Wire Wire Line
	7500 1950 7500 2100
Connection ~ 7500 2100
$Comp
L Device:R R1
U 1 1 5D319CBD
P 5950 2800
F 0 "R1" H 6020 2846 50  0000 L CNN
F 1 "1.5k" H 6020 2755 50  0000 L CNN
F 2 "Resistor_THT:R_Axial_DIN0207_L6.3mm_D2.5mm_P10.16mm_Horizontal" V 5880 2800 50  0001 C CNN
F 3 "~" H 5950 2800 50  0001 C CNN
	1    5950 2800
	1    0    0    -1  
$EndComp
Wire Wire Line
	5950 2650 5950 2600
Wire Wire Line
	5950 2600 6400 2600
$Comp
L Device:R_POT RV1
U 1 1 5D31AC10
P 5950 3200
F 0 "RV1" H 5880 3246 50  0000 R CNN
F 1 "1k" H 5880 3155 50  0000 R CNN
F 2 "Potentiometer_THT:Potentiometer_Bourns_3296W_Vertical" H 5950 3200 50  0001 C CNN
F 3 "~" H 5950 3200 50  0001 C CNN
	1    5950 3200
	1    0    0    -1  
$EndComp
Wire Wire Line
	5950 2950 5950 3050
Wire Wire Line
	6100 3450 5950 3450
Wire Wire Line
	5950 3450 5950 3350
Wire Wire Line
	6100 3200 6100 3450
$Comp
L power:GND #PWR0105
U 1 1 5D31BC0C
P 5950 3550
F 0 "#PWR0105" H 5950 3300 50  0001 C CNN
F 1 "GND" H 5955 3377 50  0000 C CNN
F 2 "" H 5950 3550 50  0001 C CNN
F 3 "" H 5950 3550 50  0001 C CNN
	1    5950 3550
	1    0    0    -1  
$EndComp
Wire Wire Line
	5950 3550 5950 3450
Connection ~ 5950 3450
$Comp
L Device:R R2
U 1 1 5D31CAC4
P 7550 2700
F 0 "R2" H 7620 2746 50  0000 L CNN
F 1 "1k" H 7620 2655 50  0000 L CNN
F 2 "Resistor_THT:R_Axial_DIN0207_L6.3mm_D2.5mm_P10.16mm_Horizontal" V 7480 2700 50  0001 C CNN
F 3 "~" H 7550 2700 50  0001 C CNN
	1    7550 2700
	1    0    0    -1  
$EndComp
$Comp
L Device:R R3
U 1 1 5D31CE91
P 7800 2700
F 0 "R3" H 7870 2746 50  0000 L CNN
F 1 "1k" H 7870 2655 50  0000 L CNN
F 2 "Resistor_THT:R_Axial_DIN0207_L6.3mm_D2.5mm_P10.16mm_Horizontal" V 7730 2700 50  0001 C CNN
F 3 "~" H 7800 2700 50  0001 C CNN
	1    7800 2700
	1    0    0    -1  
$EndComp
Wire Wire Line
	7400 2400 7550 2400
Wire Wire Line
	7550 2400 7550 2550
Wire Wire Line
	7400 2500 7800 2500
Wire Wire Line
	7800 2500 7800 2550
$Comp
L power:GND #PWR0106
U 1 1 5D31DD9F
P 7550 3050
F 0 "#PWR0106" H 7550 2800 50  0001 C CNN
F 1 "GND" H 7555 2877 50  0000 C CNN
F 2 "" H 7550 3050 50  0001 C CNN
F 3 "" H 7550 3050 50  0001 C CNN
	1    7550 3050
	1    0    0    -1  
$EndComp
$Comp
L power:GND #PWR0107
U 1 1 5D31E2EF
P 7800 3050
F 0 "#PWR0107" H 7800 2800 50  0001 C CNN
F 1 "GND" H 7805 2877 50  0000 C CNN
F 2 "" H 7800 3050 50  0001 C CNN
F 3 "" H 7800 3050 50  0001 C CNN
	1    7800 3050
	1    0    0    -1  
$EndComp
Wire Wire Line
	7550 2850 7550 3050
Wire Wire Line
	7800 2850 7800 3050
$Comp
L Device:C C1
U 1 1 5D31ED22
P 6350 3150
F 0 "C1" H 6465 3196 50  0000 L CNN
F 1 "3.9nF" H 6465 3105 50  0000 L CNN
F 2 "Capacitor_THT:C_Disc_D6.0mm_W2.5mm_P5.00mm" H 6388 3000 50  0001 C CNN
F 3 "~" H 6350 3150 50  0001 C CNN
	1    6350 3150
	1    0    0    -1  
$EndComp
Wire Wire Line
	6400 2700 6350 2700
Wire Wire Line
	6350 2700 6350 3000
$Comp
L power:GND #PWR0108
U 1 1 5D320029
P 6350 3550
F 0 "#PWR0108" H 6350 3300 50  0001 C CNN
F 1 "GND" H 6355 3377 50  0000 C CNN
F 2 "" H 6350 3550 50  0001 C CNN
F 3 "" H 6350 3550 50  0001 C CNN
	1    6350 3550
	1    0    0    -1  
$EndComp
Wire Wire Line
	6350 3550 6350 3300
Wire Wire Line
	6400 2400 6100 2400
Wire Wire Line
	6100 2400 6100 2000
Connection ~ 6100 2000
Wire Wire Line
	6400 1800 6250 1800
Wire Wire Line
	6250 1800 6250 2100
Wire Wire Line
	6250 2300 6400 2300
Wire Wire Line
	6400 2500 6250 2500
Wire Wire Line
	6250 2500 6250 2300
Connection ~ 6250 2300
Wire Wire Line
	6400 2100 6250 2100
Connection ~ 6250 2100
$Comp
L Device:R R4
U 1 1 5D334EF6
P 6100 1800
F 0 "R4" V 5893 1800 50  0000 C CNN
F 1 "10k" V 5984 1800 50  0000 C CNN
F 2 "Resistor_THT:R_Axial_DIN0207_L6.3mm_D2.5mm_P10.16mm_Horizontal" V 6030 1800 50  0001 C CNN
F 3 "~" H 6100 1800 50  0001 C CNN
	1    6100 1800
	0    1    1    0   
$EndComp
Connection ~ 6250 1800
Wire Wire Line
	5950 1800 5850 1800
Wire Wire Line
	5850 1800 5850 1900
Connection ~ 5850 1900
$Comp
L Device:R R5
U 1 1 5D3388E1
P 5500 2400
F 0 "R5" H 5570 2446 50  0000 L CNN
F 1 "2.2k" H 5570 2355 50  0000 L CNN
F 2 "Resistor_THT:R_Axial_DIN0207_L6.3mm_D2.5mm_P10.16mm_Horizontal" V 5430 2400 50  0001 C CNN
F 3 "~" H 5500 2400 50  0001 C CNN
	1    5500 2400
	1    0    0    -1  
$EndComp
$Comp
L Device:R_POT RV2
U 1 1 5D339429
P 5500 2800
F 0 "RV2" H 5431 2846 50  0000 R CNN
F 1 "R_POT" H 5431 2755 50  0000 R CNN
F 2 "Potentiometer_THT:Potentiometer_Bourns_3296W_Vertical" H 5500 2800 50  0001 C CNN
F 3 "~" H 5500 2800 50  0001 C CNN
	1    5500 2800
	1    0    0    -1  
$EndComp
$Comp
L Device:R R6
U 1 1 5D339AB0
P 5500 3200
F 0 "R6" H 5570 3246 50  0000 L CNN
F 1 "1.8k" H 5570 3155 50  0000 L CNN
F 2 "Resistor_THT:R_Axial_DIN0207_L6.3mm_D2.5mm_P10.16mm_Horizontal" V 5430 3200 50  0001 C CNN
F 3 "~" H 5500 3200 50  0001 C CNN
	1    5500 3200
	1    0    0    -1  
$EndComp
Wire Wire Line
	5500 2650 5500 2550
$Comp
L power:GND #PWR0109
U 1 1 5D3422C8
P 5500 3550
F 0 "#PWR0109" H 5500 3300 50  0001 C CNN
F 1 "GND" H 5505 3377 50  0000 C CNN
F 2 "" H 5500 3550 50  0001 C CNN
F 3 "" H 5500 3550 50  0001 C CNN
	1    5500 3550
	1    0    0    -1  
$EndComp
Wire Wire Line
	5500 3350 5500 3550
Wire Wire Line
	5500 2950 5500 3050
Wire Wire Line
	6250 2100 6250 2300
Wire Wire Line
	6250 2100 5500 2100
Wire Wire Line
	5500 2100 5500 2250
Wire Wire Line
	6400 2200 5750 2200
Wire Wire Line
	5750 2200 5750 2800
Wire Wire Line
	5750 2800 5650 2800
Wire Wire Line
	8700 2400 8200 2400
Connection ~ 7550 2400
Wire Wire Line
	8700 2500 8200 2500
Connection ~ 7800 2500
Wire Wire Line
	8700 2600 8650 2600
Wire Wire Line
	8650 2600 8650 3000
Wire Wire Line
	8650 3000 8900 3000
Wire Wire Line
	8900 3000 8900 2900
Wire Wire Line
	9000 2900 9000 3000
Wire Wire Line
	9000 3000 8900 3000
Connection ~ 8900 3000
$Comp
L power:GND #PWR0110
U 1 1 5D354154
P 8900 3100
F 0 "#PWR0110" H 8900 2850 50  0001 C CNN
F 1 "GND" H 8905 2927 50  0000 C CNN
F 2 "" H 8900 3100 50  0001 C CNN
F 3 "" H 8900 3100 50  0001 C CNN
	1    8900 3100
	1    0    0    -1  
$EndComp
Wire Wire Line
	8900 3000 8900 3100
Wire Wire Line
	9300 2600 9900 2600
$Comp
L power:+12V #PWR0111
U 1 1 5D3563EE
P 9000 1650
F 0 "#PWR0111" H 9000 1500 50  0001 C CNN
F 1 "+12V" H 9015 1823 50  0000 C CNN
F 2 "" H 9000 1650 50  0001 C CNN
F 3 "" H 9000 1650 50  0001 C CNN
	1    9000 1650
	1    0    0    -1  
$EndComp
$Comp
L Driver_FET:IR2110 U2
U 1 1 5D34F103
P 9000 2400
F 0 "U2" H 9000 3081 50  0000 C CNN
F 1 "IR2110" H 9000 2990 50  0000 C CNN
F 2 "Package_DIP:DIP-14_W7.62mm_LongPads" H 9000 2400 50  0001 C CIN
F 3 "https://www.infineon.com/dgdl/ir2110.pdf?fileId=5546d462533600a4015355c80333167e" H 9000 2400 50  0001 C CNN
	1    9000 2400
	1    0    0    -1  
$EndComp
Wire Wire Line
	9000 1650 9000 1700
$Comp
L Device:D D1
U 1 1 5D374B71
P 9200 1850
F 0 "D1" H 9200 1634 50  0000 C CNN
F 1 "MUR160" H 9200 1725 50  0000 C CNN
F 2 "Diode_THT:D_DO-41_SOD81_P10.16mm_Horizontal" H 9200 1850 50  0001 C CNN
F 3 "~" H 9200 1850 50  0001 C CNN
	1    9200 1850
	-1   0    0    1   
$EndComp
Wire Wire Line
	9050 1850 9000 1850
Connection ~ 9000 1850
Wire Wire Line
	9000 1850 9000 1900
Wire Wire Line
	9300 2100 9350 2100
Wire Wire Line
	9350 2100 9350 2050
Wire Wire Line
	9000 1700 9900 1700
Wire Wire Line
	9900 1700 9900 2600
Connection ~ 9000 1700
Wire Wire Line
	9000 1700 9000 1850
$Comp
L Device:C C2
U 1 1 5D383AFF
P 9550 1850
F 0 "C2" V 9298 1850 50  0000 C CNN
F 1 "100nF" V 9389 1850 50  0000 C CNN
F 2 "Capacitor_THT:C_Disc_D6.0mm_W2.5mm_P5.00mm" H 9588 1700 50  0001 C CNN
F 3 "~" H 9550 1850 50  0001 C CNN
	1    9550 1850
	0    1    1    0   
$EndComp
$Comp
L Device:CP C3
U 1 1 5D3847C4
P 9550 2050
F 0 "C3" V 9805 2050 50  0000 C CNN
F 1 "22uF" V 9714 2050 50  0000 C CNN
F 2 "Capacitor_THT:CP_Radial_Tantal_D4.5mm_P2.50mm" H 9588 1900 50  0001 C CNN
F 3 "~" H 9550 2050 50  0001 C CNN
	1    9550 2050
	0    -1   -1   0   
$EndComp
Wire Wire Line
	9350 1850 9400 1850
Connection ~ 9350 1850
Wire Wire Line
	9400 2050 9350 2050
Connection ~ 9350 2050
Wire Wire Line
	9350 2050 9350 1850
Wire Wire Line
	9700 1850 9750 1850
Wire Wire Line
	9750 1850 9750 2050
Wire Wire Line
	9750 2050 9700 2050
Wire Wire Line
	9750 2050 9750 2500
Wire Wire Line
	9750 2500 9300 2500
Connection ~ 9750 2050
$Comp
L Connector_Generic:Conn_01x02 J2
U 1 1 5D3AE0AE
P 8100 2200
F 0 "J2" V 8064 2012 50  0000 R CNN
F 1 "Conn_01x02" V 7973 2012 50  0000 R CNN
F 2 "Connector_PinHeader_2.54mm:PinHeader_1x02_P2.54mm_Vertical" H 8100 2200 50  0001 C CNN
F 3 "~" H 8100 2200 50  0001 C CNN
	1    8100 2200
	0    -1   -1   0   
$EndComp
Wire Wire Line
	8100 2400 7550 2400
$Comp
L Connector_Generic:Conn_01x02 J3
U 1 1 5D3BA9C4
P 8200 2700
F 0 "J3" V 8072 2780 50  0000 L CNN
F 1 "Conn_01x02" V 8163 2780 50  0000 L CNN
F 2 "Connector_PinHeader_2.54mm:PinHeader_1x02_P2.54mm_Vertical" H 8200 2700 50  0001 C CNN
F 3 "~" H 8200 2700 50  0001 C CNN
	1    8200 2700
	0    1    1    0   
$EndComp
Wire Wire Line
	8100 2500 7800 2500
$Comp
L Diode:1N4148 D2
U 1 1 5D3C4B8A
P 4800 4800
F 0 "D2" H 4800 5016 50  0000 C CNN
F 1 "1N4148" H 4800 4925 50  0000 C CNN
F 2 "Diode_THT:D_DO-35_SOD27_P7.62mm_Horizontal" H 4800 4625 50  0001 C CNN
F 3 "https://assets.nexperia.com/documents/data-sheet/1N4148_1N4448.pdf" H 4800 4800 50  0001 C CNN
	1    4800 4800
	1    0    0    -1  
$EndComp
$Comp
L Diode:1N4148 D3
U 1 1 5D3C6117
P 4800 5600
F 0 "D3" H 4800 5816 50  0000 C CNN
F 1 "1N4148" H 4800 5725 50  0000 C CNN
F 2 "Diode_THT:D_DO-35_SOD27_P7.62mm_Horizontal" H 4800 5425 50  0001 C CNN
F 3 "https://assets.nexperia.com/documents/data-sheet/1N4148_1N4448.pdf" H 4800 5600 50  0001 C CNN
	1    4800 5600
	1    0    0    -1  
$EndComp
Wire Wire Line
	4650 5600 4550 5600
$Comp
L Device:R R7
U 1 1 5D3CA1E9
P 4800 5000
F 0 "R7" V 4593 5000 50  0000 C CNN
F 1 "100" V 4684 5000 50  0000 C CNN
F 2 "Resistor_THT:R_Axial_DIN0207_L6.3mm_D2.5mm_P10.16mm_Horizontal" V 4730 5000 50  0001 C CNN
F 3 "~" H 4800 5000 50  0001 C CNN
	1    4800 5000
	0    1    1    0   
$EndComp
$Comp
L Device:R R8
U 1 1 5D3CA84A
P 4800 5800
F 0 "R8" V 4593 5800 50  0000 C CNN
F 1 "100" V 4684 5800 50  0000 C CNN
F 2 "Resistor_THT:R_Axial_DIN0207_L6.3mm_D2.5mm_P10.16mm_Horizontal" V 4730 5800 50  0001 C CNN
F 3 "~" H 4800 5800 50  0001 C CNN
	1    4800 5800
	0    1    1    0   
$EndComp
Wire Wire Line
	4550 4800 4550 5000
Wire Wire Line
	4550 5000 4650 5000
Wire Wire Line
	4550 4800 4650 4800
Wire Wire Line
	4550 5600 4550 5800
Wire Wire Line
	4550 5800 4650 5800
$Comp
L Device:R R10
U 1 1 5D3D2DAD
P 5200 5800
F 0 "R10" V 4993 5800 50  0000 C CNN
F 1 "1k" V 5084 5800 50  0000 C CNN
F 2 "Resistor_THT:R_Axial_DIN0207_L6.3mm_D2.5mm_P10.16mm_Horizontal" V 5130 5800 50  0001 C CNN
F 3 "~" H 5200 5800 50  0001 C CNN
	1    5200 5800
	0    1    1    0   
$EndComp
Wire Wire Line
	4950 5800 5000 5800
Wire Wire Line
	4950 5600 5000 5600
Wire Wire Line
	5000 5600 5000 5800
Connection ~ 5000 5800
Wire Wire Line
	5000 5800 5050 5800
Wire Wire Line
	4950 5000 5000 5000
Wire Wire Line
	5000 5000 5000 4800
Wire Wire Line
	5000 4800 4950 4800
Connection ~ 5000 5000
Wire Wire Line
	5000 5000 5050 5000
$Comp
L Transistor_FET:IRF540N Q2
U 1 1 5D3DD012
P 5500 5600
F 0 "Q2" H 5706 5646 50  0000 L CNN
F 1 "IRF840" H 5706 5555 50  0000 L CNN
F 2 "Package_TO_SOT_THT:TO-220-3_Vertical" H 5750 5525 50  0001 L CIN
F 3 "http://www.irf.com/product-info/datasheets/data/irf540n.pdf" H 5500 5600 50  0001 L CNN
	1    5500 5600
	1    0    0    -1  
$EndComp
Wire Wire Line
	5300 4800 5000 4800
Connection ~ 5000 4800
Wire Wire Line
	5300 5600 5000 5600
Connection ~ 5000 5600
Wire Wire Line
	5600 5800 5350 5800
Text GLabel 4550 5600 0    50   Input ~ 0
LO
Text GLabel 4550 4800 0    50   Input ~ 0
HO
$Comp
L Device:Transformer_1P_SS T1
U 1 1 5D42C2D1
P 7450 5350
F 0 "T1" H 7450 5731 50  0000 C CNN
F 1 "Transformer_1P_SS" H 7450 5640 50  0000 C CNN
F 2 "HuellasPiolas:Trafito" H 7450 5350 50  0001 C CNN
F 3 "~" H 7450 5350 50  0001 C CNN
	1    7450 5350
	1    0    0    -1  
$EndComp
Wire Wire Line
	5600 5200 5600 5400
Connection ~ 5600 5200
Wire Wire Line
	5600 5000 5600 5200
Wire Wire Line
	5350 5000 5600 5000
Connection ~ 5600 5000
$Comp
L Transistor_FET:IRF540N Q1
U 1 1 5D3DB711
P 5500 4800
F 0 "Q1" H 5706 4846 50  0000 L CNN
F 1 "IRF840" H 5706 4755 50  0000 L CNN
F 2 "Package_TO_SOT_THT:TO-220-3_Vertical" H 5750 4725 50  0001 L CIN
F 3 "http://www.irf.com/product-info/datasheets/data/irf540n.pdf" H 5500 4800 50  0001 L CNN
	1    5500 4800
	1    0    0    -1  
$EndComp
$Comp
L Device:R R9
U 1 1 5D3D1D59
P 5200 5000
F 0 "R9" V 4993 5000 50  0000 C CNN
F 1 "1k" V 5084 5000 50  0000 C CNN
F 2 "Resistor_THT:R_Axial_DIN0207_L6.3mm_D2.5mm_P10.16mm_Horizontal" V 5130 5000 50  0001 C CNN
F 3 "~" H 5200 5000 50  0001 C CNN
	1    5200 5000
	0    1    1    0   
$EndComp
Text GLabel 4550 5200 0    50   Input ~ 0
Vs
Wire Wire Line
	5600 5200 4550 5200
Text GLabel 10650 2500 2    50   Input ~ 0
Vs
Text GLabel 10650 2200 2    50   Input ~ 0
HO
Text GLabel 9850 2750 2    50   Input ~ 0
LO
$Comp
L Device:C C4
U 1 1 5D49B1C5
P 6400 4950
F 0 "C4" V 6148 4950 50  0000 C CNN
F 1 "330nF" V 6239 4950 50  0000 C CNN
F 2 "Capacitor_THT:C_Disc_D6.0mm_W2.5mm_P5.00mm" H 6438 4800 50  0001 C CNN
F 3 "~" H 6400 4950 50  0001 C CNN
	1    6400 4950
	0    1    1    0   
$EndComp
$Comp
L Device:C C5
U 1 1 5D4A8CF8
P 6700 5150
F 0 "C5" H 6815 5196 50  0000 L CNN
F 1 "2.2nF" H 6815 5105 50  0000 L CNN
F 2 "Capacitor_THT:C_Disc_D6.0mm_W2.5mm_P5.00mm" H 6738 5000 50  0001 C CNN
F 3 "~" H 6700 5150 50  0001 C CNN
	1    6700 5150
	1    0    0    -1  
$EndComp
$Comp
L Device:R R11
U 1 1 5D4A93C8
P 6700 5550
F 0 "R11" H 6770 5596 50  0000 L CNN
F 1 "150" H 6770 5505 50  0000 L CNN
F 2 "Resistor_THT:R_Axial_DIN0207_L6.3mm_D2.5mm_P10.16mm_Horizontal" V 6630 5550 50  0001 C CNN
F 3 "~" H 6700 5550 50  0001 C CNN
	1    6700 5550
	1    0    0    -1  
$EndComp
Wire Wire Line
	6550 4950 6700 4950
Wire Wire Line
	7000 4950 7000 5150
Wire Wire Line
	7000 5150 7050 5150
Wire Wire Line
	6700 5000 6700 4950
Connection ~ 6700 4950
Wire Wire Line
	6700 4950 7000 4950
Wire Wire Line
	6700 5400 6700 5300
Wire Wire Line
	6700 5700 6700 5750
Wire Wire Line
	6700 5750 7000 5750
Wire Wire Line
	7000 5750 7000 5550
Wire Wire Line
	7000 5550 7050 5550
$Comp
L Device:R R12
U 1 1 5D4D351B
P 3850 4800
F 0 "R12" H 3920 4846 50  0000 L CNN
F 1 "150k" H 3920 4755 50  0000 L CNN
F 2 "Resistor_THT:R_Axial_DIN0207_L6.3mm_D2.5mm_P10.16mm_Horizontal" V 3780 4800 50  0001 C CNN
F 3 "~" H 3850 4800 50  0001 C CNN
	1    3850 4800
	1    0    0    -1  
$EndComp
$Comp
L Device:R R13
U 1 1 5D4D3A2F
P 3850 5600
F 0 "R13" H 3920 5646 50  0000 L CNN
F 1 "150k" H 3920 5555 50  0000 L CNN
F 2 "Resistor_THT:R_Axial_DIN0207_L6.3mm_D2.5mm_P10.16mm_Horizontal" V 3780 5600 50  0001 C CNN
F 3 "~" H 3850 5600 50  0001 C CNN
	1    3850 5600
	1    0    0    -1  
$EndComp
Wire Wire Line
	3350 4950 3350 5300
Wire Wire Line
	3350 5750 3350 5900
Wire Wire Line
	3350 5900 3600 5900
Wire Wire Line
	3850 5900 3850 5750
$Comp
L power:GND #PWR0112
U 1 1 5D4E8904
P 3600 6000
F 0 "#PWR0112" H 3600 5750 50  0001 C CNN
F 1 "GND" H 3605 5827 50  0000 C CNN
F 2 "" H 3600 6000 50  0001 C CNN
F 3 "" H 3600 6000 50  0001 C CNN
	1    3600 6000
	1    0    0    -1  
$EndComp
Wire Wire Line
	3600 6000 3600 5900
Connection ~ 3600 5900
Wire Wire Line
	3600 5900 3850 5900
Wire Wire Line
	5600 5800 5600 5900
Wire Wire Line
	5600 5900 4750 5900
Connection ~ 5600 5800
Connection ~ 3850 5900
Wire Wire Line
	5600 4600 5600 4500
Wire Wire Line
	5600 4500 4750 4500
Wire Wire Line
	3350 4500 3350 4650
Wire Wire Line
	3850 4650 3850 4500
Connection ~ 3850 4500
Wire Wire Line
	3850 4500 3350 4500
$Comp
L Device:CP C6
U 1 1 5D513278
P 3350 4800
F 0 "C6" H 3468 4846 50  0000 L CNN
F 1 "470uF" H 3468 4755 50  0000 L CNN
F 2 "Capacitor_THT:CP_Radial_D22.0mm_P10.00mm_SnapIn" H 3388 4650 50  0001 C CNN
F 3 "~" H 3350 4800 50  0001 C CNN
	1    3350 4800
	1    0    0    -1  
$EndComp
$Comp
L Device:CP C7
U 1 1 5D51CD10
P 3350 5600
F 0 "C7" H 3468 5646 50  0000 L CNN
F 1 "470uF" H 3468 5555 50  0000 L CNN
F 2 "Capacitor_THT:CP_Radial_D22.0mm_P10.00mm_SnapIn" H 3388 5450 50  0001 C CNN
F 3 "~" H 3350 5600 50  0001 C CNN
	1    3350 5600
	1    0    0    -1  
$EndComp
Wire Wire Line
	3850 4950 3850 5300
Wire Wire Line
	6700 5750 6100 5750
Wire Wire Line
	6100 5750 6100 5300
Connection ~ 6700 5750
Connection ~ 3850 5300
Wire Wire Line
	3850 5300 3850 5450
$Comp
L Diode_Bridge:W10G D4
U 1 1 5D5364A7
P 2550 5200
F 0 "D4" H 2894 5246 50  0000 L CNN
F 1 "W10G" H 2894 5155 50  0000 L CNN
F 2 "Diode_THT:Diode_Bridge_Round_D9.8mm" H 2700 5325 50  0001 L CNN
F 3 "https://www.vishay.com/docs/88769/woo5g.pdf" H 2550 5200 50  0001 C CNN
	1    2550 5200
	1    0    0    -1  
$EndComp
Wire Wire Line
	3350 4500 3000 4500
Wire Wire Line
	3000 4500 3000 5200
Wire Wire Line
	3000 5200 2850 5200
Connection ~ 3350 4500
Wire Wire Line
	2250 5200 2200 5200
Wire Wire Line
	2200 5200 2200 5900
Wire Wire Line
	2200 5900 3350 5900
Connection ~ 3350 5900
$Comp
L Device:Fuse F1
U 1 1 5D54768F
P 1950 4800
F 0 "F1" V 1753 4800 50  0000 C CNN
F 1 "Fuse 500mA" V 1844 4800 50  0000 C CNN
F 2 "HuellasPiolas:portaFusible" V 1880 4800 50  0001 C CNN
F 3 "~" H 1950 4800 50  0001 C CNN
	1    1950 4800
	0    1    1    0   
$EndComp
$Comp
L Device:Thermistor_NTC TH1
U 1 1 5D547FCD
P 1950 5600
F 0 "TH1" V 1660 5600 50  0000 C CNN
F 1 "30" V 1751 5600 50  0000 C CNN
F 2 "Capacitor_THT:C_Disc_D10.5mm_W5.0mm_P5.00mm" H 1950 5650 50  0001 C CNN
F 3 "~" H 1950 5650 50  0001 C CNN
	1    1950 5600
	0    1    1    0   
$EndComp
Wire Wire Line
	2550 5500 2550 5600
Wire Wire Line
	2550 5600 2100 5600
Wire Wire Line
	2100 4800 2550 4800
Wire Wire Line
	2550 4800 2550 4900
$Comp
L Connector_Generic:Conn_01x02 J4
U 1 1 5D34D02E
P 4650 4300
F 0 "J4" V 4614 4112 50  0000 R CNN
F 1 "Conn_01x02" V 4523 4112 50  0000 R CNN
F 2 "Connector_PinHeader_2.54mm:PinHeader_1x02_P2.54mm_Vertical" H 4650 4300 50  0001 C CNN
F 3 "~" H 4650 4300 50  0001 C CNN
	1    4650 4300
	0    -1   -1   0   
$EndComp
Wire Wire Line
	4650 4500 3850 4500
$Comp
L Connector_Generic:Conn_01x02 J5
U 1 1 5D3528D1
P 4750 6100
F 0 "J5" V 4622 6180 50  0000 L CNN
F 1 "Conn_01x02" V 4713 6180 50  0000 L CNN
F 2 "Connector_PinHeader_2.54mm:PinHeader_1x02_P2.54mm_Vertical" H 4750 6100 50  0001 C CNN
F 3 "~" H 4750 6100 50  0001 C CNN
	1    4750 6100
	0    1    1    0   
$EndComp
Wire Wire Line
	4650 5900 3850 5900
Wire Wire Line
	3850 5300 3350 5300
Connection ~ 3350 5300
Wire Wire Line
	3350 5300 3350 5450
Wire Wire Line
	3850 5300 5800 5300
$Comp
L Connector_Generic:Conn_01x02 J6
U 1 1 5D36AF08
P 5800 5100
F 0 "J6" V 5764 4912 50  0000 R CNN
F 1 "Conn_01x02" V 5673 4912 50  0000 R CNN
F 2 "Connector_PinHeader_2.54mm:PinHeader_1x02_P2.54mm_Vertical" H 5800 5100 50  0001 C CNN
F 3 "~" H 5800 5100 50  0001 C CNN
	1    5800 5100
	0    -1   -1   0   
$EndComp
Wire Wire Line
	5900 5300 6100 5300
$Comp
L Connector_Generic:Conn_01x02 J7
U 1 1 5D37E74B
P 5900 4750
F 0 "J7" V 5864 4562 50  0000 R CNN
F 1 "Conn_01x02" V 5773 4562 50  0000 R CNN
F 2 "Connector_PinHeader_2.54mm:PinHeader_1x02_P2.54mm_Vertical" H 5900 4750 50  0001 C CNN
F 3 "~" H 5900 4750 50  0001 C CNN
	1    5900 4750
	0    -1   -1   0   
$EndComp
Wire Wire Line
	6000 4950 6250 4950
Wire Wire Line
	5900 4950 5700 4950
Wire Wire Line
	5700 4950 5700 5000
Wire Wire Line
	5700 5000 5600 5000
$Comp
L Connector_Generic:Conn_01x02 J9
U 1 1 5D398A49
P 10400 2700
F 0 "J9" V 10272 2780 50  0000 L CNN
F 1 "Conn_01x02" V 10363 2780 50  0000 L CNN
F 2 "Connector_PinHeader_2.54mm:PinHeader_1x02_P2.54mm_Vertical" H 10400 2700 50  0001 C CNN
F 3 "~" H 10400 2700 50  0001 C CNN
	1    10400 2700
	0    1    1    0   
$EndComp
Wire Wire Line
	10650 2500 10400 2500
Wire Wire Line
	10300 2500 9750 2500
Connection ~ 9750 2500
$Comp
L Connector_Generic:Conn_01x02 J8
U 1 1 5D3A72DA
P 10400 2400
F 0 "J8" V 10272 2480 50  0000 L CNN
F 1 "Conn_01x02" V 10363 2480 50  0000 L CNN
F 2 "Connector_PinHeader_2.54mm:PinHeader_1x02_P2.54mm_Vertical" H 10400 2400 50  0001 C CNN
F 3 "~" H 10400 2400 50  0001 C CNN
	1    10400 2400
	0    1    1    0   
$EndComp
Wire Wire Line
	10400 2200 10650 2200
Wire Wire Line
	10300 2200 9300 2200
$Comp
L Connector_Generic:Conn_01x02 J10
U 1 1 5D3BA516
P 9700 2950
F 0 "J10" V 9572 3030 50  0000 L CNN
F 1 "Conn_01x02" V 9663 3030 50  0000 L CNN
F 2 "Connector_PinHeader_2.54mm:PinHeader_1x02_P2.54mm_Vertical" H 9700 2950 50  0001 C CNN
F 3 "~" H 9700 2950 50  0001 C CNN
	1    9700 2950
	0    1    1    0   
$EndComp
Wire Wire Line
	9850 2750 9700 2750
Wire Wire Line
	9600 2750 9450 2750
Wire Wire Line
	9450 2750 9450 2700
Wire Wire Line
	9450 2700 9300 2700
Wire Wire Line
	7850 5150 8050 5150
Wire Wire Line
	8050 5150 8050 5000
Wire Wire Line
	7850 5550 8050 5550
Wire Wire Line
	8050 5550 8050 5600
Wire Wire Line
	8450 5600 8050 5600
Wire Wire Line
	8050 5000 8450 5000
$Comp
L Device:D_x2_KCom_AKA D5
U 1 1 5D3F579B
P 8450 5300
F 0 "D5" V 8496 5379 50  0000 L CNN
F 1 "D_x2_KCom_AKA" V 8405 5379 50  0000 L CNN
F 2 "Package_TO_SOT_THT:TO-220F-3_Vertical" H 8450 5300 50  0001 C CNN
F 3 "~" H 8450 5300 50  0001 C CNN
	1    8450 5300
	0    -1   -1   0   
$EndComp
Wire Wire Line
	8800 5200 8750 5200
Wire Wire Line
	8750 5200 8750 5300
Wire Wire Line
	8750 5300 8650 5300
$Comp
L Device:L_Core_Ferrite L1
U 1 1 5D41F3DB
P 8950 5200
F 0 "L1" V 9175 5200 50  0000 C CNN
F 1 "53uH" V 9084 5200 50  0000 C CNN
F 2 "Inductor_THT:L_Toroid_Vertical_L22.4mm_W10.2mm_P7.90mm_Vishay_TJ4" H 8950 5200 50  0001 C CNN
F 3 "~" H 8950 5200 50  0001 C CNN
	1    8950 5200
	0    -1   -1   0   
$EndComp
$Comp
L Device:CP C8
U 1 1 5D43A19F
P 9250 5400
F 0 "C8" H 9368 5446 50  0000 L CNN
F 1 "100uF" H 9368 5355 50  0000 L CNN
F 2 "Capacitor_THT:CP_Radial_D8.0mm_P3.50mm" H 9288 5250 50  0001 C CNN
F 3 "~" H 9250 5400 50  0001 C CNN
	1    9250 5400
	1    0    0    -1  
$EndComp
Wire Wire Line
	9100 5200 9250 5200
Wire Wire Line
	9250 5200 9250 5250
$Comp
L Connector:Screw_Terminal_01x02 J11
U 1 1 5D4AEF0C
P 9950 5350
F 0 "J11" H 10030 5342 50  0000 L CNN
F 1 "Screw_Terminal_01x02" H 10030 5251 50  0000 L CNN
F 2 "TerminalBlock:TerminalBlock_bornier-2_P5.08mm" H 9950 5350 50  0001 C CNN
F 3 "~" H 9950 5350 50  0001 C CNN
	1    9950 5350
	1    0    0    -1  
$EndComp
Wire Wire Line
	9250 5200 9600 5200
Wire Wire Line
	9600 5200 9600 5350
Wire Wire Line
	9600 5350 9750 5350
Connection ~ 9250 5200
Wire Wire Line
	9750 5450 9600 5450
Wire Wire Line
	1800 4800 1500 4800
Wire Wire Line
	1500 4800 1500 5150
Wire Wire Line
	1500 5250 1500 5600
Wire Wire Line
	1500 5600 1800 5600
Wire Wire Line
	7850 5350 8150 5350
Wire Wire Line
	8150 5350 8150 5650
Wire Wire Line
	8150 5650 9250 5650
Wire Wire Line
	9250 5550 9250 5650
Wire Wire Line
	9600 5450 9600 5650
Wire Wire Line
	9600 5650 9250 5650
Connection ~ 9250 5650
$Comp
L Device:Transformer_1P_1S T2
U 1 1 5D525F64
P 1950 2500
F 0 "T2" H 1950 2881 50  0000 C CNN
F 1 "Transformer_1P_1S" H 1950 2790 50  0000 C CNN
F 2 "HuellasPiolas:Transformer_Breve_TEZ-28x33" H 1950 2500 50  0001 C CNN
F 3 "~" H 1950 2500 50  0001 C CNN
	1    1950 2500
	1    0    0    -1  
$EndComp
$Comp
L Diode_Bridge:W10G D6
U 1 1 5D52F392
P 2900 2500
F 0 "D6" H 3244 2546 50  0000 L CNN
F 1 "W10G" H 3244 2455 50  0000 L CNN
F 2 "Diode_THT:Diode_Bridge_Round_D9.8mm" H 3050 2625 50  0001 L CNN
F 3 "https://www.vishay.com/docs/88769/woo5g.pdf" H 2900 2500 50  0001 C CNN
	1    2900 2500
	1    0    0    -1  
$EndComp
Wire Wire Line
	2900 2200 2900 2150
Wire Wire Line
	2900 2150 2500 2150
Wire Wire Line
	2500 2150 2500 2300
Wire Wire Line
	2500 2300 2350 2300
Wire Wire Line
	2350 2700 2500 2700
Wire Wire Line
	2500 2700 2500 2850
Wire Wire Line
	2500 2850 2900 2850
Wire Wire Line
	2900 2850 2900 2800
$Comp
L Device:CP C9
U 1 1 5D543CAE
P 3500 2500
F 0 "C9" H 3618 2546 50  0000 L CNN
F 1 "1000uF" H 3618 2455 50  0000 L CNN
F 2 "Capacitor_THT:CP_Radial_D10.0mm_P5.00mm" H 3538 2350 50  0001 C CNN
F 3 "~" H 3500 2500 50  0001 C CNN
	1    3500 2500
	1    0    0    -1  
$EndComp
Wire Wire Line
	3200 2500 3300 2500
Wire Wire Line
	3300 2500 3300 2300
Wire Wire Line
	3300 2300 3500 2300
Wire Wire Line
	3500 2300 3500 2350
Wire Wire Line
	3500 2650 3500 2750
Wire Wire Line
	3500 2900 2550 2900
Wire Wire Line
	2550 2900 2550 2500
Wire Wire Line
	2550 2500 2600 2500
$Comp
L Device:C C10
U 1 1 5D56504B
P 3900 2500
F 0 "C10" H 4015 2546 50  0000 L CNN
F 1 "100nF" H 4015 2455 50  0000 L CNN
F 2 "Capacitor_THT:C_Disc_D6.0mm_W2.5mm_P5.00mm" H 3938 2350 50  0001 C CNN
F 3 "~" H 3900 2500 50  0001 C CNN
	1    3900 2500
	1    0    0    -1  
$EndComp
Wire Wire Line
	3500 2300 3900 2300
Wire Wire Line
	3900 2300 3900 2350
Connection ~ 3500 2300
Wire Wire Line
	3900 2650 3900 2750
Wire Wire Line
	3900 2750 3500 2750
Connection ~ 3500 2750
Wire Wire Line
	3500 2750 3500 2900
$Comp
L Regulator_Linear:LM7812_TO220 U3
U 1 1 5D591CF6
P 4400 2300
F 0 "U3" H 4400 2542 50  0000 C CNN
F 1 "LM7812_TO220" H 4400 2451 50  0000 C CNN
F 2 "Package_TO_SOT_THT:TO-220-3_Vertical" H 4400 2525 50  0001 C CIN
F 3 "http://www.fairchildsemi.com/ds/LM/LM7805.pdf" H 4400 2250 50  0001 C CNN
	1    4400 2300
	1    0    0    -1  
$EndComp
Wire Wire Line
	4100 2300 3900 2300
Connection ~ 3900 2300
Wire Wire Line
	4400 2600 4400 2750
Wire Wire Line
	4400 2750 3900 2750
Connection ~ 3900 2750
$Comp
L Device:C C11
U 1 1 5D5AB5FC
P 4850 2500
F 0 "C11" H 4965 2546 50  0000 L CNN
F 1 "100nF" H 4965 2455 50  0000 L CNN
F 2 "Capacitor_THT:C_Disc_D6.0mm_W2.5mm_P5.00mm" H 4888 2350 50  0001 C CNN
F 3 "~" H 4850 2500 50  0001 C CNN
	1    4850 2500
	1    0    0    -1  
$EndComp
Wire Wire Line
	4850 2650 4850 2750
Wire Wire Line
	4850 2750 4400 2750
Connection ~ 4400 2750
Wire Wire Line
	4850 2350 4850 2300
Wire Wire Line
	4850 2300 4700 2300
$Comp
L power:+12V #PWR0113
U 1 1 5D608C1B
P 4850 2300
F 0 "#PWR0113" H 4850 2150 50  0001 C CNN
F 1 "+12V" H 4865 2473 50  0000 C CNN
F 2 "" H 4850 2300 50  0001 C CNN
F 3 "" H 4850 2300 50  0001 C CNN
	1    4850 2300
	1    0    0    -1  
$EndComp
Connection ~ 4850 2300
$Comp
L power:GND #PWR0114
U 1 1 5D60AC50
P 4850 2750
F 0 "#PWR0114" H 4850 2500 50  0001 C CNN
F 1 "GND" H 4855 2577 50  0000 C CNN
F 2 "" H 4850 2750 50  0001 C CNN
F 3 "" H 4850 2750 50  0001 C CNN
	1    4850 2750
	1    0    0    -1  
$EndComp
Connection ~ 4850 2750
$Comp
L LibreriaPiola:EMI_Filter U4
U 1 1 5D6334F5
P 800 5200
F 0 "U4" H 858 5475 50  0000 C CNN
F 1 "EMI_Filter" H 858 5384 50  0000 C CNN
F 2 "HuellasPiolas:EMI_Filter" H 800 5350 50  0001 C CNN
F 3 "" H 800 5350 50  0001 C CNN
	1    800  5200
	1    0    0    -1  
$EndComp
Wire Wire Line
	950  5150 1150 5150
Wire Wire Line
	950  5250 1300 5250
Wire Wire Line
	1550 2300 1150 2300
Wire Wire Line
	1150 2300 1150 5150
Connection ~ 1150 5150
Wire Wire Line
	1150 5150 1500 5150
Wire Wire Line
	1550 2700 1300 2700
Wire Wire Line
	1300 2700 1300 5250
Connection ~ 1300 5250
Wire Wire Line
	1300 5250 1500 5250
$EndSCHEMATC
