EESchema Schematic File Version 4
LIBS:motor_pwm-cache
EELAYER 30 0
EELAYER END
$Descr A4 11693 8268
encoding utf-8
Sheet 1 1
Title "Control PWM para motor"
Date "2019-09-23"
Rev "1.0"
Comp ""
Comment1 ""
Comment2 ""
Comment3 ""
Comment4 ""
$EndDescr
$Comp
L 4xxx:4049 U5
U 1 1 5D85C3C1
P 6350 1300
F 0 "U5" H 6350 1617 50  0000 C CNN
F 1 "4049" H 6350 1526 50  0000 C CNN
F 2 "Package_DIP:DIP-16_W7.62mm_LongPads" H 6350 1300 50  0001 C CNN
F 3 "http://www.intersil.com/content/dam/intersil/documents/cd40/cd4049ubms.pdf" H 6350 1300 50  0001 C CNN
	1    6350 1300
	1    0    0    -1  
$EndComp
$Comp
L 4xxx:4049 U5
U 2 1 5D85DC96
P 6350 2350
F 0 "U5" H 6350 2667 50  0000 C CNN
F 1 "4049" H 6350 2576 50  0000 C CNN
F 2 "Package_DIP:DIP-16_W7.62mm_LongPads" H 6350 2350 50  0001 C CNN
F 3 "http://www.intersil.com/content/dam/intersil/documents/cd40/cd4049ubms.pdf" H 6350 2350 50  0001 C CNN
	2    6350 2350
	1    0    0    -1  
$EndComp
$Comp
L 4xxx:4049 U5
U 3 1 5D85EACE
P 7100 2350
F 0 "U5" H 7100 2667 50  0000 C CNN
F 1 "4049" H 7100 2576 50  0000 C CNN
F 2 "Package_DIP:DIP-16_W7.62mm_LongPads" H 7100 2350 50  0001 C CNN
F 3 "http://www.intersil.com/content/dam/intersil/documents/cd40/cd4049ubms.pdf" H 7100 2350 50  0001 C CNN
	3    7100 2350
	1    0    0    -1  
$EndComp
Wire Wire Line
	6050 1300 5900 1300
Wire Wire Line
	5900 2350 6050 2350
Wire Wire Line
	6650 2350 6800 2350
$Comp
L Diode:1N4148 D8
U 1 1 5D86DC8A
P 7800 1300
F 0 "D8" H 7800 1084 50  0000 C CNN
F 1 "1N4148" H 7800 1175 50  0000 C CNN
F 2 "Diode_THT:D_DO-35_SOD27_P7.62mm_Horizontal" H 7800 1125 50  0001 C CNN
F 3 "https://assets.nexperia.com/documents/data-sheet/1N4148_1N4448.pdf" H 7800 1300 50  0001 C CNN
	1    7800 1300
	-1   0    0    1   
$EndComp
$Comp
L Diode:1N4148 D9
U 1 1 5D86F37F
P 7800 2350
F 0 "D9" H 7800 2134 50  0000 C CNN
F 1 "1N4148" H 7800 2225 50  0000 C CNN
F 2 "Diode_THT:D_DO-35_SOD27_P7.62mm_Horizontal" H 7800 2175 50  0001 C CNN
F 3 "https://assets.nexperia.com/documents/data-sheet/1N4148_1N4448.pdf" H 7800 2350 50  0001 C CNN
	1    7800 2350
	-1   0    0    1   
$EndComp
$Comp
L Device:R R17
U 1 1 5D86FDB8
P 7800 950
F 0 "R17" V 7593 950 50  0000 C CNN
F 1 "2,7k" V 7684 950 50  0000 C CNN
F 2 "Resistor_THT:R_Axial_DIN0207_L6.3mm_D2.5mm_P10.16mm_Horizontal" V 7730 950 50  0001 C CNN
F 3 "~" H 7800 950 50  0001 C CNN
	1    7800 950 
	0    1    1    0   
$EndComp
$Comp
L Device:R R18
U 1 1 5D870531
P 7800 2000
F 0 "R18" V 7593 2000 50  0000 C CNN
F 1 "2,7k" V 7684 2000 50  0000 C CNN
F 2 "Resistor_THT:R_Axial_DIN0207_L6.3mm_D2.5mm_P10.16mm_Horizontal" V 7730 2000 50  0001 C CNN
F 3 "~" H 7800 2000 50  0001 C CNN
	1    7800 2000
	0    1    1    0   
$EndComp
$Comp
L Device:C C8
U 1 1 5D8732A5
P 8350 1500
F 0 "C8" H 8465 1546 50  0000 L CNN
F 1 "1nF" H 8465 1455 50  0000 L CNN
F 2 "Capacitor_THT:C_Disc_D5.0mm_W2.5mm_P5.00mm" H 8388 1350 50  0001 C CNN
F 3 "~" H 8350 1500 50  0001 C CNN
	1    8350 1500
	1    0    0    -1  
$EndComp
$Comp
L Device:C C9
U 1 1 5D8739F5
P 8350 2550
F 0 "C9" H 8465 2596 50  0000 L CNN
F 1 "1nF" H 8465 2505 50  0000 L CNN
F 2 "Capacitor_THT:C_Disc_D5.0mm_W2.5mm_P5.00mm" H 8388 2400 50  0001 C CNN
F 3 "~" H 8350 2550 50  0001 C CNN
	1    8350 2550
	1    0    0    -1  
$EndComp
$Comp
L power:GND #PWR022
U 1 1 5D87A819
P 8350 1750
F 0 "#PWR022" H 8350 1500 50  0001 C CNN
F 1 "GND" H 8355 1577 50  0000 C CNN
F 2 "" H 8350 1750 50  0001 C CNN
F 3 "" H 8350 1750 50  0001 C CNN
	1    8350 1750
	1    0    0    -1  
$EndComp
$Comp
L power:GND #PWR023
U 1 1 5D894CCC
P 8350 2800
F 0 "#PWR023" H 8350 2550 50  0001 C CNN
F 1 "GND" H 8355 2627 50  0000 C CNN
F 2 "" H 8350 2800 50  0001 C CNN
F 3 "" H 8350 2800 50  0001 C CNN
	1    8350 2800
	1    0    0    -1  
$EndComp
Wire Wire Line
	6650 1300 7550 1300
Wire Wire Line
	7650 950  7550 950 
Wire Wire Line
	7550 950  7550 1300
Connection ~ 7550 1300
Wire Wire Line
	7550 1300 7650 1300
Wire Wire Line
	7950 950  8100 950 
Wire Wire Line
	8100 950  8100 1300
Wire Wire Line
	8100 1300 7950 1300
Wire Wire Line
	8100 1300 8350 1300
Wire Wire Line
	8350 1300 8350 1350
Connection ~ 8100 1300
Wire Wire Line
	8350 1650 8350 1750
Wire Wire Line
	7950 2000 8100 2000
Wire Wire Line
	8100 2000 8100 2350
Wire Wire Line
	8100 2350 7950 2350
Wire Wire Line
	7650 2000 7550 2000
Wire Wire Line
	7550 2000 7550 2350
Wire Wire Line
	7550 2350 7400 2350
Wire Wire Line
	7650 2350 7550 2350
Connection ~ 7550 2350
Wire Wire Line
	8100 2350 8350 2350
Wire Wire Line
	8350 2350 8350 2400
Connection ~ 8100 2350
Wire Wire Line
	8350 2700 8350 2800
$Comp
L 4xxx:4049 U5
U 4 1 5D8B2CCF
P 8900 1300
F 0 "U5" H 8900 1617 50  0000 C CNN
F 1 "4049" H 8900 1526 50  0000 C CNN
F 2 "Package_DIP:DIP-16_W7.62mm_LongPads" H 8900 1300 50  0001 C CNN
F 3 "http://www.intersil.com/content/dam/intersil/documents/cd40/cd4049ubms.pdf" H 8900 1300 50  0001 C CNN
	4    8900 1300
	1    0    0    -1  
$EndComp
$Comp
L 4xxx:4049 U5
U 5 1 5D8B3C62
P 8900 2350
F 0 "U5" H 8900 2667 50  0000 C CNN
F 1 "4049" H 8900 2576 50  0000 C CNN
F 2 "Package_DIP:DIP-16_W7.62mm_LongPads" H 8900 2350 50  0001 C CNN
F 3 "http://www.intersil.com/content/dam/intersil/documents/cd40/cd4049ubms.pdf" H 8900 2350 50  0001 C CNN
	5    8900 2350
	1    0    0    -1  
$EndComp
Wire Wire Line
	8350 1300 8600 1300
Connection ~ 8350 1300
Wire Wire Line
	8600 2350 8350 2350
Connection ~ 8350 2350
$Comp
L Device:R R19
U 1 1 5D8B8940
P 9500 1300
F 0 "R19" V 9293 1300 50  0000 C CNN
F 1 "1k" V 9384 1300 50  0000 C CNN
F 2 "Resistor_THT:R_Axial_DIN0207_L6.3mm_D2.5mm_P10.16mm_Horizontal" V 9430 1300 50  0001 C CNN
F 3 "~" H 9500 1300 50  0001 C CNN
	1    9500 1300
	0    1    1    0   
$EndComp
$Comp
L Device:R R20
U 1 1 5D8B91F3
P 9500 2350
F 0 "R20" V 9293 2350 50  0000 C CNN
F 1 "1k" V 9384 2350 50  0000 C CNN
F 2 "Resistor_THT:R_Axial_DIN0207_L6.3mm_D2.5mm_P10.16mm_Horizontal" V 9430 2350 50  0001 C CNN
F 3 "~" H 9500 2350 50  0001 C CNN
	1    9500 2350
	0    1    1    0   
$EndComp
Wire Wire Line
	9200 1300 9350 1300
Wire Wire Line
	9200 2350 9350 2350
Text GLabel 9750 1300 2    50   Input ~ 0
PWM1
Text GLabel 9750 2350 2    50   Input ~ 0
PWM2
Wire Wire Line
	9650 1300 9750 1300
Wire Wire Line
	9650 2350 9750 2350
$Comp
L Driver_FET:IR2110 U1
U 1 1 5D88CF81
P 2000 4600
F 0 "U1" H 2000 5281 50  0000 C CNN
F 1 "IR2110" H 2000 5190 50  0000 C CNN
F 2 "Package_DIP:DIP-14_W7.62mm_LongPads" H 2000 4600 50  0001 C CIN
F 3 "https://www.infineon.com/dgdl/ir2110.pdf?fileId=5546d462533600a4015355c80333167e" H 2000 4600 50  0001 C CNN
	1    2000 4600
	1    0    0    -1  
$EndComp
Text GLabel 1700 4600 0    50   Input ~ 0
PWM1
Text GLabel 1700 4700 0    50   Input ~ 0
PWM2
Text GLabel 1700 4800 0    50   Input ~ 0
PR_OUT
$Comp
L power:GND #PWR05
U 1 1 5D892A40
P 1950 5200
F 0 "#PWR05" H 1950 4950 50  0001 C CNN
F 1 "GND" H 1955 5027 50  0000 C CNN
F 2 "" H 1950 5200 50  0001 C CNN
F 3 "" H 1950 5200 50  0001 C CNN
	1    1950 5200
	1    0    0    -1  
$EndComp
Wire Wire Line
	1900 5100 1900 5150
Wire Wire Line
	1900 5150 1950 5150
Wire Wire Line
	1950 5150 1950 5200
Wire Wire Line
	2000 5100 2000 5150
Wire Wire Line
	2000 5150 1950 5150
Connection ~ 1950 5150
Wire Wire Line
	2000 3850 2000 4100
$Comp
L Diode:1N4007 D1
U 1 1 5D8ACCE2
P 2400 4050
F 0 "D1" V 2446 3971 50  0000 R CNN
F 1 "MUR160" V 2355 3971 50  0000 R CNN
F 2 "Diode_THT:D_DO-41_SOD81_P10.16mm_Horizontal" H 2400 3875 50  0001 C CNN
F 3 "http://www.vishay.com/docs/88503/1n4001.pdf" H 2400 4050 50  0001 C CNN
	1    2400 4050
	0    -1   -1   0   
$EndComp
Wire Wire Line
	2400 4200 2400 4250
Wire Wire Line
	2400 4300 2300 4300
Wire Wire Line
	2400 3900 2400 3850
Connection ~ 2400 3850
Wire Wire Line
	2400 3850 2000 3850
$Comp
L power:+12V #PWR06
U 1 1 5D8B9D7C
P 2000 3850
F 0 "#PWR06" H 2000 3700 50  0001 C CNN
F 1 "+12V" H 2015 4023 50  0000 C CNN
F 2 "" H 2000 3850 50  0001 C CNN
F 3 "" H 2000 3850 50  0001 C CNN
	1    2000 3850
	1    0    0    -1  
$EndComp
Connection ~ 2000 3850
$Comp
L Device:C C3
U 1 1 5D8C6A1F
P 2750 4050
F 0 "C3" H 2865 4096 50  0000 L CNN
F 1 "100nF" H 2865 4005 50  0000 L CNN
F 2 "Capacitor_THT:C_Disc_D5.0mm_W2.5mm_P5.00mm" H 2788 3900 50  0001 C CNN
F 3 "~" H 2750 4050 50  0001 C CNN
	1    2750 4050
	1    0    0    -1  
$EndComp
Wire Wire Line
	2750 3900 2750 3850
Wire Wire Line
	2750 3850 2600 3850
Wire Wire Line
	2750 4200 2750 4700
Wire Wire Line
	2750 4700 2300 4700
Wire Wire Line
	3050 4700 2950 4700
Connection ~ 2750 4700
Wire Wire Line
	2300 4800 2600 4800
Wire Wire Line
	2600 4800 2600 3850
Connection ~ 2600 3850
Wire Wire Line
	2600 3850 2400 3850
Text GLabel 2300 4400 2    50   Input ~ 0
HO1
Text GLabel 2300 4900 2    50   Input ~ 0
LO1
Text GLabel 3050 4700 2    50   Input ~ 0
VS1
$Comp
L Driver_FET:IR2110 U3
U 1 1 5D9092B4
P 4650 4600
F 0 "U3" H 4650 5281 50  0000 C CNN
F 1 "IR2110" H 4650 5190 50  0000 C CNN
F 2 "Package_DIP:DIP-14_W7.62mm_LongPads" H 4650 4600 50  0001 C CIN
F 3 "https://www.infineon.com/dgdl/ir2110.pdf?fileId=5546d462533600a4015355c80333167e" H 4650 4600 50  0001 C CNN
	1    4650 4600
	1    0    0    -1  
$EndComp
Text GLabel 4350 4700 0    50   Input ~ 0
PWM1
Text GLabel 4350 4600 0    50   Input ~ 0
PWM2
Text GLabel 4350 4800 0    50   Input ~ 0
PR_OUT
$Comp
L power:GND #PWR015
U 1 1 5D9092BD
P 4600 5200
F 0 "#PWR015" H 4600 4950 50  0001 C CNN
F 1 "GND" H 4605 5027 50  0000 C CNN
F 2 "" H 4600 5200 50  0001 C CNN
F 3 "" H 4600 5200 50  0001 C CNN
	1    4600 5200
	1    0    0    -1  
$EndComp
Wire Wire Line
	4550 5100 4550 5150
Wire Wire Line
	4550 5150 4600 5150
Wire Wire Line
	4600 5150 4600 5200
Wire Wire Line
	4650 5100 4650 5150
Wire Wire Line
	4650 5150 4600 5150
Connection ~ 4600 5150
Wire Wire Line
	4650 3850 4650 4100
$Comp
L Diode:1N4007 D5
U 1 1 5D9092CA
P 5050 4050
F 0 "D5" V 5096 3971 50  0000 R CNN
F 1 "MUR160" V 5005 3971 50  0000 R CNN
F 2 "Diode_THT:D_DO-41_SOD81_P10.16mm_Horizontal" H 5050 3875 50  0001 C CNN
F 3 "http://www.vishay.com/docs/88503/1n4001.pdf" H 5050 4050 50  0001 C CNN
	1    5050 4050
	0    -1   -1   0   
$EndComp
Wire Wire Line
	5050 4200 5050 4250
Wire Wire Line
	5050 4300 4950 4300
Wire Wire Line
	5050 3900 5050 3850
Connection ~ 5050 3850
Wire Wire Line
	5050 3850 4650 3850
$Comp
L power:+12V #PWR016
U 1 1 5D9092D5
P 4650 3850
F 0 "#PWR016" H 4650 3700 50  0001 C CNN
F 1 "+12V" H 4665 4023 50  0000 C CNN
F 2 "" H 4650 3850 50  0001 C CNN
F 3 "" H 4650 3850 50  0001 C CNN
	1    4650 3850
	1    0    0    -1  
$EndComp
Connection ~ 4650 3850
$Comp
L Device:C C6
U 1 1 5D9092DC
P 5400 4050
F 0 "C6" H 5515 4096 50  0000 L CNN
F 1 "100nF" H 5515 4005 50  0000 L CNN
F 2 "Capacitor_THT:C_Disc_D5.0mm_W2.5mm_P5.00mm" H 5438 3900 50  0001 C CNN
F 3 "~" H 5400 4050 50  0001 C CNN
	1    5400 4050
	1    0    0    -1  
$EndComp
$Comp
L Device:CP C7
U 1 1 5D9092E2
P 5650 4450
F 0 "C7" H 5768 4496 50  0000 L CNN
F 1 "4.7uF" H 5768 4405 50  0000 L CNN
F 2 "Capacitor_THT:CP_Radial_D5.0mm_P2.00mm" H 5688 4300 50  0001 C CNN
F 3 "~" H 5650 4450 50  0001 C CNN
	1    5650 4450
	1    0    0    -1  
$EndComp
Wire Wire Line
	5400 3900 5400 3850
Wire Wire Line
	5400 3850 5250 3850
Wire Wire Line
	5400 4200 5400 4700
Wire Wire Line
	5400 4700 4950 4700
Wire Wire Line
	5700 4700 5650 4700
Connection ~ 5400 4700
Wire Wire Line
	4950 4800 5250 4800
Wire Wire Line
	5250 4800 5250 3850
Connection ~ 5250 3850
Wire Wire Line
	5250 3850 5050 3850
Text GLabel 4950 4400 2    50   Input ~ 0
HO2
Text GLabel 4950 4900 2    50   Input ~ 0
LO2
Text GLabel 5700 4700 2    50   Input ~ 0
VS2
$Comp
L Transistor_FET:IRF740 Q2
U 1 1 5D95E2DB
P 7800 4150
F 0 "Q2" H 8006 4196 50  0000 L CNN
F 1 "IRF840" H 8006 4105 50  0000 L CNN
F 2 "Package_TO_SOT_THT:TO-220-3_Vertical" H 8050 4075 50  0001 L CIN
F 3 "http://www.vishay.com/docs/91054/91054.pdf" H 7800 4150 50  0001 L CNN
	1    7800 4150
	1    0    0    -1  
$EndComp
$Comp
L Transistor_FET:IRF740 Q3
U 1 1 5D975B8A
P 7800 5150
F 0 "Q3" H 8006 5196 50  0000 L CNN
F 1 "IRF840" H 8006 5105 50  0000 L CNN
F 2 "Package_TO_SOT_THT:TO-220-3_Vertical" H 8050 5075 50  0001 L CIN
F 3 "http://www.vishay.com/docs/91054/91054.pdf" H 7800 5150 50  0001 L CNN
	1    7800 5150
	1    0    0    -1  
$EndComp
$Comp
L Transistor_FET:IRF740 Q4
U 1 1 5D97B048
P 9450 4150
F 0 "Q4" H 9656 4104 50  0000 L CNN
F 1 "IRF840" H 9656 4195 50  0000 L CNN
F 2 "Package_TO_SOT_THT:TO-220-3_Vertical" H 9700 4075 50  0001 L CIN
F 3 "http://www.vishay.com/docs/91054/91054.pdf" H 9450 4150 50  0001 L CNN
	1    9450 4150
	-1   0    0    -1  
$EndComp
Wire Wire Line
	7900 4350 7900 4450
Wire Wire Line
	9350 4350 9350 4450
$Comp
L Diode:1N4148 D10
U 1 1 5D9944AC
P 8300 4150
F 0 "D10" V 8254 4229 50  0000 L CNN
F 1 "1N4148" V 8345 4229 50  0000 L CNN
F 2 "Diode_THT:D_DO-35_SOD27_P7.62mm_Horizontal" H 8300 3975 50  0001 C CNN
F 3 "https://assets.nexperia.com/documents/data-sheet/1N4148_1N4448.pdf" H 8300 4150 50  0001 C CNN
	1    8300 4150
	0    1    1    0   
$EndComp
$Comp
L Diode:1N4148 D11
U 1 1 5D997C04
P 8300 5150
F 0 "D11" V 8254 5229 50  0000 L CNN
F 1 "1N4148" V 8345 5229 50  0000 L CNN
F 2 "Diode_THT:D_DO-35_SOD27_P7.62mm_Horizontal" H 8300 4975 50  0001 C CNN
F 3 "https://assets.nexperia.com/documents/data-sheet/1N4148_1N4448.pdf" H 8300 5150 50  0001 C CNN
	1    8300 5150
	0    1    1    0   
$EndComp
$Comp
L Diode:1N4148 D12
U 1 1 5D9B0B3B
P 8900 4150
F 0 "D12" V 8854 4229 50  0000 L CNN
F 1 "1N4148" V 8945 4229 50  0000 L CNN
F 2 "Diode_THT:D_DO-35_SOD27_P7.62mm_Horizontal" H 8900 3975 50  0001 C CNN
F 3 "https://assets.nexperia.com/documents/data-sheet/1N4148_1N4448.pdf" H 8900 4150 50  0001 C CNN
	1    8900 4150
	0    1    1    0   
$EndComp
Wire Wire Line
	8300 4300 8300 4450
Wire Wire Line
	8300 4450 7900 4450
Connection ~ 7900 4450
Wire Wire Line
	8300 5000 8300 4850
Wire Wire Line
	8300 4850 7900 4850
Connection ~ 7900 4850
Wire Wire Line
	7900 4850 7900 4950
Wire Wire Line
	9350 5350 9350 5450
Wire Wire Line
	8300 5300 8300 5600
Wire Wire Line
	7900 5600 8300 5600
Connection ~ 8300 5600
Wire Wire Line
	8900 5300 8900 5600
Connection ~ 8900 5600
Wire Wire Line
	8900 5600 9350 5600
Wire Wire Line
	8900 5000 8900 4850
Wire Wire Line
	8900 4850 9350 4850
Connection ~ 9350 4850
Wire Wire Line
	9350 4850 9350 4950
Wire Wire Line
	8900 4300 8900 4450
Wire Wire Line
	8900 4450 9350 4450
Connection ~ 9350 4450
Wire Wire Line
	9350 4450 9350 4650
Wire Wire Line
	7900 3950 7900 3700
Wire Wire Line
	7900 3700 8300 3700
Wire Wire Line
	9350 3700 9350 3950
Wire Wire Line
	8900 4000 8900 3700
Connection ~ 8900 3700
Wire Wire Line
	8900 3700 9350 3700
Wire Wire Line
	8300 4000 8300 3700
Connection ~ 8300 3700
Wire Wire Line
	8300 3700 8600 3700
$Comp
L Diode:1N4007 D6
U 1 1 5DA4288F
P 7250 3850
F 0 "D6" H 7250 4066 50  0000 C CNN
F 1 "MUR160" H 7250 3975 50  0000 C CNN
F 2 "Diode_THT:D_DO-41_SOD81_P10.16mm_Horizontal" H 7250 3675 50  0001 C CNN
F 3 "http://www.vishay.com/docs/88503/1n4001.pdf" H 7250 3850 50  0001 C CNN
	1    7250 3850
	1    0    0    -1  
$EndComp
$Comp
L Diode:1N4007 D7
U 1 1 5DA47622
P 7250 4850
F 0 "D7" H 7250 5066 50  0000 C CNN
F 1 "MUR160" H 7250 4975 50  0000 C CNN
F 2 "Diode_THT:D_DO-41_SOD81_P10.16mm_Horizontal" H 7250 4675 50  0001 C CNN
F 3 "http://www.vishay.com/docs/88503/1n4001.pdf" H 7250 4850 50  0001 C CNN
	1    7250 4850
	1    0    0    -1  
$EndComp
$Comp
L Diode:1N4007 D14
U 1 1 5DA54652
P 10000 3850
F 0 "D14" H 10000 3634 50  0000 C CNN
F 1 "MUR160" H 10000 3725 50  0000 C CNN
F 2 "Diode_THT:D_DO-41_SOD81_P10.16mm_Horizontal" H 10000 3675 50  0001 C CNN
F 3 "http://www.vishay.com/docs/88503/1n4001.pdf" H 10000 3850 50  0001 C CNN
	1    10000 3850
	-1   0    0    1   
$EndComp
$Comp
L Diode:1N4007 D15
U 1 1 5DA5817D
P 10000 4850
F 0 "D15" H 10000 4634 50  0000 C CNN
F 1 "MUR160" H 10000 4725 50  0000 C CNN
F 2 "Diode_THT:D_DO-41_SOD81_P10.16mm_Horizontal" H 10000 4675 50  0001 C CNN
F 3 "http://www.vishay.com/docs/88503/1n4001.pdf" H 10000 4850 50  0001 C CNN
	1    10000 4850
	-1   0    0    1   
$EndComp
$Comp
L Device:R R13
U 1 1 5DA764CB
P 7250 4150
F 0 "R13" V 7043 4150 50  0000 C CNN
F 1 "100" V 7134 4150 50  0000 C CNN
F 2 "Resistor_THT:R_Axial_DIN0207_L6.3mm_D2.5mm_P10.16mm_Horizontal" V 7180 4150 50  0001 C CNN
F 3 "~" H 7250 4150 50  0001 C CNN
	1    7250 4150
	0    1    1    0   
$EndComp
$Comp
L Device:R R15
U 1 1 5DA770F4
P 7250 5150
F 0 "R15" V 7043 5150 50  0000 C CNN
F 1 "100" V 7134 5150 50  0000 C CNN
F 2 "Resistor_THT:R_Axial_DIN0207_L6.3mm_D2.5mm_P10.16mm_Horizontal" V 7180 5150 50  0001 C CNN
F 3 "~" H 7250 5150 50  0001 C CNN
	1    7250 5150
	0    1    1    0   
$EndComp
$Comp
L Device:R R21
U 1 1 5DA81480
P 10000 4150
F 0 "R21" V 9793 4150 50  0000 C CNN
F 1 "100" V 9884 4150 50  0000 C CNN
F 2 "Resistor_THT:R_Axial_DIN0207_L6.3mm_D2.5mm_P10.16mm_Horizontal" V 9930 4150 50  0001 C CNN
F 3 "~" H 10000 4150 50  0001 C CNN
	1    10000 4150
	0    1    1    0   
$EndComp
$Comp
L Device:R R23
U 1 1 5DA82809
P 10000 5150
F 0 "R23" V 9793 5150 50  0000 C CNN
F 1 "100" V 9884 5150 50  0000 C CNN
F 2 "Resistor_THT:R_Axial_DIN0207_L6.3mm_D2.5mm_P10.16mm_Horizontal" V 9930 5150 50  0001 C CNN
F 3 "~" H 10000 5150 50  0001 C CNN
	1    10000 5150
	0    1    1    0   
$EndComp
$Comp
L Device:R R14
U 1 1 5DA83A60
P 7250 4450
F 0 "R14" V 7043 4450 50  0000 C CNN
F 1 "1k" V 7134 4450 50  0000 C CNN
F 2 "Resistor_THT:R_Axial_DIN0207_L6.3mm_D2.5mm_P10.16mm_Horizontal" V 7180 4450 50  0001 C CNN
F 3 "~" H 7250 4450 50  0001 C CNN
	1    7250 4450
	0    1    1    0   
$EndComp
$Comp
L Device:R R16
U 1 1 5DA9F987
P 7250 5450
F 0 "R16" V 7043 5450 50  0000 C CNN
F 1 "1k" V 7134 5450 50  0000 C CNN
F 2 "Resistor_THT:R_Axial_DIN0207_L6.3mm_D2.5mm_P10.16mm_Horizontal" V 7180 5450 50  0001 C CNN
F 3 "~" H 7250 5450 50  0001 C CNN
	1    7250 5450
	0    1    1    0   
$EndComp
$Comp
L Device:R R22
U 1 1 5DAA589E
P 10000 4450
F 0 "R22" V 9793 4450 50  0000 C CNN
F 1 "1k" V 9884 4450 50  0000 C CNN
F 2 "Resistor_THT:R_Axial_DIN0207_L6.3mm_D2.5mm_P10.16mm_Horizontal" V 9930 4450 50  0001 C CNN
F 3 "~" H 10000 4450 50  0001 C CNN
	1    10000 4450
	0    1    1    0   
$EndComp
$Comp
L Device:R R24
U 1 1 5DAA656E
P 10000 5450
F 0 "R24" V 9793 5450 50  0000 C CNN
F 1 "1k" V 9884 5450 50  0000 C CNN
F 2 "Resistor_THT:R_Axial_DIN0207_L6.3mm_D2.5mm_P10.16mm_Horizontal" V 9930 5450 50  0001 C CNN
F 3 "~" H 10000 5450 50  0001 C CNN
	1    10000 5450
	0    1    1    0   
$EndComp
Wire Wire Line
	7400 4150 7550 4150
Wire Wire Line
	7400 3850 7550 3850
Wire Wire Line
	7550 3850 7550 4150
Connection ~ 7550 4150
Wire Wire Line
	7550 4150 7600 4150
Wire Wire Line
	7100 3850 6900 3850
Wire Wire Line
	6900 3850 6900 4150
Wire Wire Line
	6900 4150 7100 4150
Wire Wire Line
	7100 4450 6900 4450
Wire Wire Line
	6900 4450 6900 4150
Connection ~ 6900 4150
Wire Wire Line
	7100 4850 6900 4850
Wire Wire Line
	6900 4850 6900 5150
Wire Wire Line
	6900 5150 7100 5150
Wire Wire Line
	7100 5450 6900 5450
Wire Wire Line
	6900 5450 6900 5150
Connection ~ 6900 5150
Wire Wire Line
	7600 5150 7550 5150
Wire Wire Line
	7400 4850 7550 4850
Wire Wire Line
	7550 4850 7550 5150
Connection ~ 7550 5150
Wire Wire Line
	7550 5150 7400 5150
Wire Wire Line
	7900 5350 7900 5450
Connection ~ 7900 5450
Wire Wire Line
	7900 5450 7900 5600
Wire Wire Line
	9850 4450 9350 4450
Wire Wire Line
	10150 4150 10350 4150
Wire Wire Line
	10350 4150 10350 3850
Wire Wire Line
	10350 3850 10150 3850
Wire Wire Line
	10150 4450 10350 4450
Wire Wire Line
	10350 4450 10350 4150
Connection ~ 10350 4150
Wire Wire Line
	9850 4150 9650 4150
Wire Wire Line
	9850 3850 9650 3850
Wire Wire Line
	9650 3850 9650 4150
Connection ~ 9650 4150
Wire Wire Line
	9850 5150 9650 5150
Wire Wire Line
	9850 4850 9650 4850
Wire Wire Line
	9650 4850 9650 5150
Connection ~ 9650 5150
Wire Wire Line
	9850 5450 9350 5450
Connection ~ 9350 5450
Wire Wire Line
	9350 5450 9350 5600
Wire Wire Line
	10150 5450 10350 5450
Wire Wire Line
	10350 5450 10350 5150
Wire Wire Line
	10350 5150 10150 5150
Wire Wire Line
	10150 4850 10350 4850
Wire Wire Line
	10350 4850 10350 5150
Connection ~ 10350 5150
$Comp
L Connector:Screw_Terminal_01x02 J4
U 1 1 5DB4AE0C
P 8550 4400
F 0 "J4" V 8514 4212 50  0000 R CNN
F 1 "Motor" V 8423 4212 50  0000 R CNN
F 2 "TerminalBlock:TerminalBlock_bornier-2_P5.08mm" H 8550 4400 50  0001 C CNN
F 3 "~" H 8550 4400 50  0001 C CNN
	1    8550 4400
	0    -1   -1   0   
$EndComp
Wire Wire Line
	7900 4450 7900 4650
Wire Wire Line
	8550 4600 8550 4650
Wire Wire Line
	8550 4650 7900 4650
Connection ~ 7900 4650
Wire Wire Line
	7900 4650 7900 4850
Wire Wire Line
	8650 4600 8650 4650
Wire Wire Line
	8650 4650 9350 4650
Connection ~ 9350 4650
Wire Wire Line
	9350 4650 9350 4850
Wire Wire Line
	7400 5450 7900 5450
$Comp
L power:+12V #PWR024
U 1 1 5DC140A8
P 8600 3650
F 0 "#PWR024" H 8600 3500 50  0001 C CNN
F 1 "+12V" H 8615 3823 50  0000 C CNN
F 2 "" H 8600 3650 50  0001 C CNN
F 3 "" H 8600 3650 50  0001 C CNN
	1    8600 3650
	1    0    0    -1  
$EndComp
Wire Wire Line
	8600 3650 8600 3700
Connection ~ 8600 3700
Wire Wire Line
	8600 3700 8900 3700
Text GLabel 7900 4650 0    50   Input ~ 0
VS1
Text GLabel 9350 4650 2    50   Input ~ 0
VS2
Text GLabel 6900 4150 0    50   Input ~ 0
HO1
Text GLabel 10350 4150 2    50   Input ~ 0
HO2
Text GLabel 6900 5150 0    50   Input ~ 0
LO1
Text GLabel 10350 5150 2    50   Input ~ 0
LO2
Wire Wire Line
	8300 5600 8900 5600
Text GLabel 8600 5600 3    50   Input ~ 0
PR_IN
$Comp
L Device:LED D2
U 1 1 5DD46866
P 2550 2100
F 0 "D2" V 2589 1982 50  0000 R CNN
F 1 "Encendido" V 2498 1982 50  0000 R CNN
F 2 "LED_THT:LED_D5.0mm" H 2550 2100 50  0001 C CNN
F 3 "~" H 2550 2100 50  0001 C CNN
	1    2550 2100
	0    -1   -1   0   
$EndComp
$Comp
L Device:R R2
U 1 1 5DD5528D
P 2550 1650
F 0 "R2" H 2620 1696 50  0000 L CNN
F 1 "560" H 2620 1605 50  0000 L CNN
F 2 "Resistor_THT:R_Axial_DIN0207_L6.3mm_D2.5mm_P10.16mm_Horizontal" V 2480 1650 50  0001 C CNN
F 3 "~" H 2550 1650 50  0001 C CNN
	1    2550 1650
	1    0    0    -1  
$EndComp
$Comp
L power:+12V #PWR07
U 1 1 5DD55C5E
P 2550 1350
F 0 "#PWR07" H 2550 1200 50  0001 C CNN
F 1 "+12V" H 2565 1523 50  0000 C CNN
F 2 "" H 2550 1350 50  0001 C CNN
F 3 "" H 2550 1350 50  0001 C CNN
	1    2550 1350
	1    0    0    -1  
$EndComp
$Comp
L power:GND #PWR08
U 1 1 5DD5666E
P 2550 2400
F 0 "#PWR08" H 2550 2150 50  0001 C CNN
F 1 "GND" H 2555 2227 50  0000 C CNN
F 2 "" H 2550 2400 50  0001 C CNN
F 3 "" H 2550 2400 50  0001 C CNN
	1    2550 2400
	1    0    0    -1  
$EndComp
Wire Wire Line
	2550 2400 2550 2250
Wire Wire Line
	2550 1950 2550 1800
Wire Wire Line
	2550 1500 2550 1350
$Comp
L Device:R R1
U 1 1 5DE20ED5
P 1500 6750
F 0 "R1" H 1570 6796 50  0000 L CNN
F 1 "1" H 1570 6705 50  0000 L CNN
F 2 "Resistor_THT:R_Axial_Power_L20.0mm_W6.4mm_P22.40mm" V 1430 6750 50  0001 C CNN
F 3 "~" H 1500 6750 50  0001 C CNN
	1    1500 6750
	1    0    0    -1  
$EndComp
$Comp
L Device:CP C1
U 1 1 5DE215E1
P 1850 6750
F 0 "C1" H 1968 6796 50  0000 L CNN
F 1 "4,7uF" H 1968 6705 50  0000 L CNN
F 2 "Capacitor_THT:CP_Radial_D5.0mm_P2.00mm" H 1888 6600 50  0001 C CNN
F 3 "~" H 1850 6750 50  0001 C CNN
	1    1850 6750
	1    0    0    -1  
$EndComp
$Comp
L Device:R_POT RV1
U 1 1 5DEA4382
P 2250 6950
F 0 "RV1" H 2180 6996 50  0000 R CNN
F 1 "1k" H 2180 6905 50  0000 R CNN
F 2 "Potentiometer_THT:Potentiometer_Piher_PT-15-H01_Horizontal" H 2250 6950 50  0001 C CNN
F 3 "~" H 2250 6950 50  0001 C CNN
	1    2250 6950
	1    0    0    -1  
$EndComp
Wire Wire Line
	1850 6400 1850 6600
Wire Wire Line
	1500 6600 1500 6400
Wire Wire Line
	1500 6400 1850 6400
Connection ~ 1850 6400
Wire Wire Line
	1500 6900 1500 7200
Wire Wire Line
	1850 6900 1850 7200
Wire Wire Line
	2400 6950 2450 6950
Wire Wire Line
	2450 6950 2450 6600
Wire Wire Line
	2250 6800 2250 6700
Wire Wire Line
	2250 7100 2250 7200
$Comp
L Device:CP C2
U 1 1 5E06D5A1
P 1950 1850
F 0 "C2" H 2068 1896 50  0000 L CNN
F 1 "1000uF" H 2068 1805 50  0000 L CNN
F 2 "Capacitor_THT:CP_Radial_D12.5mm_P5.00mm" H 1988 1700 50  0001 C CNN
F 3 "~" H 1950 1850 50  0001 C CNN
	1    1950 1850
	1    0    0    -1  
$EndComp
$Comp
L power:+12V #PWR03
U 1 1 5E0725C1
P 1950 1350
F 0 "#PWR03" H 1950 1200 50  0001 C CNN
F 1 "+12V" H 1965 1523 50  0000 C CNN
F 2 "" H 1950 1350 50  0001 C CNN
F 3 "" H 1950 1350 50  0001 C CNN
	1    1950 1350
	1    0    0    -1  
$EndComp
$Comp
L power:GND #PWR04
U 1 1 5E072F57
P 1950 2400
F 0 "#PWR04" H 1950 2150 50  0001 C CNN
F 1 "GND" H 1955 2227 50  0000 C CNN
F 2 "" H 1950 2400 50  0001 C CNN
F 3 "" H 1950 2400 50  0001 C CNN
	1    1950 2400
	1    0    0    -1  
$EndComp
Wire Wire Line
	1950 1700 1950 1350
Wire Wire Line
	1950 2000 1950 2400
Wire Wire Line
	4300 6000 4300 5800
Wire Wire Line
	3650 7200 3650 7000
Connection ~ 3650 6500
Wire Wire Line
	3750 6500 3650 6500
Wire Wire Line
	3650 6500 3650 6700
Wire Wire Line
	3550 6500 3650 6500
Wire Wire Line
	3100 6500 3250 6500
Wire Wire Line
	2450 6600 2500 6600
Wire Wire Line
	2500 6400 1850 6400
$Comp
L Switch:SW_Push SW1
U 1 1 5DE5340E
P 4850 6050
F 0 "SW1" V 4804 6198 50  0000 L CNN
F 1 "RESET" V 4895 6198 50  0000 L CNN
F 2 "Button_Switch_THT:SW_Tactile_Straight_KSA0Axx1LFTR" H 4850 6250 50  0001 C CNN
F 3 "~" H 4850 6250 50  0001 C CNN
	1    4850 6050
	0    1    1    0   
$EndComp
$Comp
L Triac_Thyristor:TIC106 Q1
U 1 1 5DE36C38
P 4300 6150
F 0 "Q1" H 4388 6196 50  0000 L CNN
F 1 "TIC106" H 4388 6105 50  0000 L CNN
F 2 "Package_TO_SOT_THT:TO-220-3_Vertical" H 4400 6075 50  0001 L CIN
F 3 "http://pdf.datasheetcatalog.com/datasheet/PowerInnovations/mXyzrtvs.pdf" H 4300 6150 50  0001 L CNN
	1    4300 6150
	1    0    0    -1  
$EndComp
$Comp
L Device:R R6
U 1 1 5DE3628C
P 3900 6500
F 0 "R6" V 3693 6500 50  0000 C CNN
F 1 "1k" V 3784 6500 50  0000 C CNN
F 2 "Resistor_THT:R_Axial_DIN0207_L6.3mm_D2.5mm_P10.16mm_Horizontal" V 3830 6500 50  0001 C CNN
F 3 "~" H 3900 6500 50  0001 C CNN
	1    3900 6500
	0    1    1    0   
$EndComp
$Comp
L Device:R R5
U 1 1 5DE359AA
P 3650 6850
F 0 "R5" H 3720 6896 50  0000 L CNN
F 1 "10k" H 3720 6805 50  0000 L CNN
F 2 "Resistor_THT:R_Axial_DIN0207_L6.3mm_D2.5mm_P10.16mm_Horizontal" V 3580 6850 50  0001 C CNN
F 3 "~" H 3650 6850 50  0001 C CNN
	1    3650 6850
	1    0    0    -1  
$EndComp
$Comp
L Diode:1N4007 D3
U 1 1 5DE34E93
P 3400 6500
F 0 "D3" H 3400 6284 50  0000 C CNN
F 1 "1N4007" H 3400 6375 50  0000 C CNN
F 2 "Diode_THT:D_DO-41_SOD81_P10.16mm_Horizontal" H 3400 6325 50  0001 C CNN
F 3 "http://www.vishay.com/docs/88503/1n4001.pdf" H 3400 6500 50  0001 C CNN
	1    3400 6500
	-1   0    0    1   
$EndComp
$Comp
L Diode:1N4148 D13
U 1 1 5D9B0B41
P 8900 5150
F 0 "D13" V 8854 5229 50  0000 L CNN
F 1 "1N4148" V 8945 5229 50  0000 L CNN
F 2 "Diode_THT:D_DO-35_SOD27_P7.62mm_Horizontal" H 8900 4975 50  0001 C CNN
F 3 "https://assets.nexperia.com/documents/data-sheet/1N4148_1N4448.pdf" H 8900 5150 50  0001 C CNN
	1    8900 5150
	0    1    1    0   
$EndComp
$Comp
L Amplifier_Operational:LM358 U2
U 1 1 5E42C5AE
P 2800 6500
F 0 "U2" H 2800 6867 50  0000 C CNN
F 1 "LM358" H 2800 6776 50  0000 C CNN
F 2 "Package_DIP:DIP-8_W7.62mm_Socket_LongPads" H 2800 6500 50  0001 C CNN
F 3 "http://www.ti.com/lit/ds/symlink/lm2904-n.pdf" H 2800 6500 50  0001 C CNN
	1    2800 6500
	1    0    0    -1  
$EndComp
$Comp
L Amplifier_Operational:LM358 U2
U 3 1 5E491D8E
P 3200 5650
F 0 "U2" H 3158 5696 50  0000 L CNN
F 1 "LM358" H 3158 5605 50  0000 L CNN
F 2 "Package_DIP:DIP-8_W7.62mm_Socket_LongPads" H 3200 5650 50  0001 C CNN
F 3 "http://www.ti.com/lit/ds/symlink/lm2904-n.pdf" H 3200 5650 50  0001 C CNN
	3    3200 5650
	1    0    0    -1  
$EndComp
$Comp
L Transistor_FET:IRF740 Q5
U 1 1 5D9811F2
P 9450 5150
F 0 "Q5" H 9656 5104 50  0000 L CNN
F 1 "IRF840" H 9656 5195 50  0000 L CNN
F 2 "Package_TO_SOT_THT:TO-220-3_Vertical" H 9700 5075 50  0001 L CIN
F 3 "http://www.vishay.com/docs/91054/91054.pdf" H 9450 5150 50  0001 L CNN
	1    9450 5150
	-1   0    0    -1  
$EndComp
$Comp
L Connector_Generic:Conn_01x02 J1
U 1 1 5E5DC7E8
P 1100 1300
F 0 "J1" V 1064 1112 50  0000 R CNN
F 1 "Entrada" V 973 1112 50  0000 R CNN
F 2 "Connector_PinHeader_2.54mm:PinHeader_1x02_P2.54mm_Vertical" H 1100 1300 50  0001 C CNN
F 3 "~" H 1100 1300 50  0001 C CNN
	1    1100 1300
	0    -1   -1   0   
$EndComp
$Comp
L power:+12V #PWR02
U 1 1 5E5FD289
P 1200 1500
F 0 "#PWR02" H 1200 1350 50  0001 C CNN
F 1 "+12V" H 1215 1673 50  0000 C CNN
F 2 "" H 1200 1500 50  0001 C CNN
F 3 "" H 1200 1500 50  0001 C CNN
	1    1200 1500
	-1   0    0    1   
$EndComp
$Comp
L power:GND #PWR01
U 1 1 5E5FDA49
P 1100 1500
F 0 "#PWR01" H 1100 1250 50  0001 C CNN
F 1 "GND" H 1105 1327 50  0000 C CNN
F 2 "" H 1100 1500 50  0001 C CNN
F 3 "" H 1100 1500 50  0001 C CNN
	1    1100 1500
	1    0    0    -1  
$EndComp
$Comp
L 4xxx:4049 U5
U 7 1 5D8D94EE
P 10450 1750
F 0 "U5" H 10680 1796 50  0000 L CNN
F 1 "4049" H 10680 1705 50  0000 L CNN
F 2 "Package_DIP:DIP-16_W7.62mm_LongPads" H 10450 1750 50  0001 C CNN
F 3 "http://www.intersil.com/content/dam/intersil/documents/cd40/cd4049ubms.pdf" H 10450 1750 50  0001 C CNN
	7    10450 1750
	1    0    0    -1  
$EndComp
$Comp
L power:+12V #PWR025
U 1 1 5D8E286B
P 10450 1250
F 0 "#PWR025" H 10450 1100 50  0001 C CNN
F 1 "+12V" H 10465 1423 50  0000 C CNN
F 2 "" H 10450 1250 50  0001 C CNN
F 3 "" H 10450 1250 50  0001 C CNN
	1    10450 1250
	1    0    0    -1  
$EndComp
$Comp
L power:GND #PWR026
U 1 1 5D8E356E
P 10450 2250
F 0 "#PWR026" H 10450 2000 50  0001 C CNN
F 1 "GND" H 10455 2077 50  0000 C CNN
F 2 "" H 10450 2250 50  0001 C CNN
F 3 "" H 10450 2250 50  0001 C CNN
	1    10450 2250
	1    0    0    -1  
$EndComp
Wire Wire Line
	7400 4450 7900 4450
Text GLabel 1850 5850 3    50   Input ~ 0
VCC
Text GLabel 2050 5850 3    50   Input ~ 0
PR_IN1
Text GLabel 2150 5850 3    50   Input ~ 0
PR_OUT1
Text GLabel 3100 5350 1    50   Input ~ 0
VCC
Text GLabel 1500 6400 1    50   Input ~ 0
PR_IN1
Text GLabel 4850 6350 2    50   Input ~ 0
PR_OUT1
Text GLabel 3100 5950 3    50   Input ~ 0
TIERRA
$Comp
L power:+12V #PWR021
U 1 1 5DABAEC2
P 7600 6050
F 0 "#PWR021" H 7600 5900 50  0001 C CNN
F 1 "+12V" H 7615 6223 50  0000 C CNN
F 2 "" H 7600 6050 50  0001 C CNN
F 3 "" H 7600 6050 50  0001 C CNN
	1    7600 6050
	-1   0    0    1   
$EndComp
$Comp
L power:GND #PWR020
U 1 1 5DB0031E
P 7500 6050
F 0 "#PWR020" H 7500 5800 50  0001 C CNN
F 1 "GND" H 7505 5877 50  0000 C CNN
F 2 "" H 7500 6050 50  0001 C CNN
F 3 "" H 7500 6050 50  0001 C CNN
	1    7500 6050
	1    0    0    -1  
$EndComp
$Comp
L Connector_Generic:Conn_01x04 J3
U 1 1 5DA8A533
P 7400 5850
F 0 "J3" V 7364 5562 50  0000 R CNN
F 1 "Conn_01x04" V 7273 5562 50  0000 R CNN
F 2 "Connector_PinSocket_2.54mm:PinSocket_1x04_P2.54mm_Vertical" H 7400 5850 50  0001 C CNN
F 3 "~" H 7400 5850 50  0001 C CNN
	1    7400 5850
	0    -1   -1   0   
$EndComp
Text GLabel 7400 6050 3    50   Input ~ 0
PR_IN
Text GLabel 7300 6050 3    50   Input ~ 0
PR_OUT
$Comp
L Connector_Generic:Conn_01x04 J2
U 1 1 5D8BE71D
P 1950 5650
F 0 "J2" V 1914 5362 50  0000 R CNN
F 1 "Conn_01x04" V 1823 5362 50  0000 R CNN
F 2 "Connector_PinHeader_2.54mm:PinHeader_1x04_P2.54mm_Vertical" H 1950 5650 50  0001 C CNN
F 3 "~" H 1950 5650 50  0001 C CNN
	1    1950 5650
	0    -1   -1   0   
$EndComp
Text GLabel 1500 7200 3    50   Input ~ 0
TIERRA
Text GLabel 1850 7200 3    50   Input ~ 0
TIERRA
Text GLabel 2250 7200 3    50   Input ~ 0
TIERRA
Text GLabel 3650 7200 3    50   Input ~ 0
TIERRA
Text GLabel 4300 7200 3    50   Input ~ 0
TIERRA
Text GLabel 1950 5850 3    50   Input ~ 0
TIERRA
Text GLabel 2250 6700 1    50   Input ~ 0
VCC
$Comp
L Device:CP C4
U 1 1 5D8C6F34
P 2950 4450
F 0 "C4" H 3068 4496 50  0000 L CNN
F 1 "4.7uF" H 3068 4405 50  0000 L CNN
F 2 "Capacitor_THT:CP_Radial_D5.0mm_P2.00mm" H 2988 4300 50  0001 C CNN
F 3 "~" H 2950 4450 50  0001 C CNN
	1    2950 4450
	1    0    0    -1  
$EndComp
Wire Wire Line
	2950 4600 2950 4700
Connection ~ 2950 4700
Wire Wire Line
	2950 4700 2750 4700
Wire Wire Line
	2950 4300 2950 4250
Wire Wire Line
	2950 4250 2400 4250
Connection ~ 2400 4250
Wire Wire Line
	2400 4250 2400 4300
Wire Wire Line
	5650 4600 5650 4700
Connection ~ 5650 4700
Wire Wire Line
	5650 4700 5400 4700
Wire Wire Line
	5650 4300 5650 4250
Wire Wire Line
	5650 4250 5050 4250
Connection ~ 5050 4250
Wire Wire Line
	5050 4250 5050 4300
$Comp
L Regulator_Controller:TL494 U4
U 1 1 5DC46042
P 4900 2000
F 0 "U4" H 4900 2881 50  0000 C CNN
F 1 "TL494" H 4900 2790 50  0000 C CNN
F 2 "Package_DIP:DIP-16_W7.62mm_LongPads" H 4900 2000 50  0001 C CNN
F 3 "http://www.ti.com/lit/ds/symlink/tl494.pdf" H 4900 2000 50  0001 C CNN
	1    4900 2000
	1    0    0    -1  
$EndComp
$Comp
L power:GND #PWR018
U 1 1 5DC46048
P 4900 2650
F 0 "#PWR018" H 4900 2400 50  0001 C CNN
F 1 "GND" H 4905 2477 50  0000 C CNN
F 2 "" H 4900 2650 50  0001 C CNN
F 3 "" H 4900 2650 50  0001 C CNN
	1    4900 2650
	1    0    0    -1  
$EndComp
Wire Wire Line
	4900 2650 4900 2600
$Comp
L power:GND #PWR019
U 1 1 5DC4604F
P 5550 2150
F 0 "#PWR019" H 5550 1900 50  0001 C CNN
F 1 "GND" H 5555 1977 50  0000 C CNN
F 2 "" H 5550 2150 50  0001 C CNN
F 3 "" H 5550 2150 50  0001 C CNN
	1    5550 2150
	1    0    0    -1  
$EndComp
Wire Wire Line
	5400 2100 5550 2100
Wire Wire Line
	5550 2100 5550 2150
$Comp
L Device:R R7
U 1 1 5DC8255F
P 4000 1700
F 0 "R7" V 3793 1700 50  0000 C CNN
F 1 "4,7k" V 3884 1700 50  0000 C CNN
F 2 "" V 3930 1700 50  0001 C CNN
F 3 "~" H 4000 1700 50  0001 C CNN
	1    4000 1700
	0    1    1    0   
$EndComp
Wire Wire Line
	4150 1700 4200 1700
$Comp
L power:GND #PWR011
U 1 1 5DC92B93
P 3700 1750
F 0 "#PWR011" H 3700 1500 50  0001 C CNN
F 1 "GND" H 3705 1577 50  0000 C CNN
F 2 "" H 3700 1750 50  0001 C CNN
F 3 "" H 3700 1750 50  0001 C CNN
	1    3700 1750
	1    0    0    -1  
$EndComp
Wire Wire Line
	3700 1750 3700 1700
Wire Wire Line
	3700 1700 3850 1700
Wire Wire Line
	4400 1800 4300 1800
Wire Wire Line
	4400 1500 4300 1500
Wire Wire Line
	4300 1500 4300 1800
Wire Wire Line
	4200 1600 4200 1700
Connection ~ 4200 1700
Wire Wire Line
	4200 1600 4400 1600
Wire Wire Line
	4200 1700 4400 1700
$Comp
L Device:R R9
U 1 1 5DCFED52
P 4150 2000
F 0 "R9" V 3943 2000 50  0000 C CNN
F 1 "4,7k" V 4034 2000 50  0000 C CNN
F 2 "" V 4080 2000 50  0001 C CNN
F 3 "~" H 4150 2000 50  0001 C CNN
	1    4150 2000
	0    1    1    0   
$EndComp
Wire Wire Line
	4400 2000 4300 2000
Wire Wire Line
	4000 2000 3950 2000
Wire Wire Line
	3950 1800 4300 1800
Wire Wire Line
	3950 1800 3950 2000
Connection ~ 4300 1800
$Comp
L Device:R_POT RV2
U 1 1 5DD2242E
P 3450 2150
F 0 "RV2" H 3380 2196 50  0000 R CNN
F 1 "10k" H 3380 2105 50  0000 R CNN
F 2 "" H 3450 2150 50  0001 C CNN
F 3 "~" H 3450 2150 50  0001 C CNN
	1    3450 2150
	1    0    0    -1  
$EndComp
Wire Wire Line
	4400 2100 3850 2100
Wire Wire Line
	3850 2100 3850 2150
Wire Wire Line
	3850 2150 3600 2150
$Comp
L Device:R R4
U 1 1 5DD35452
P 3450 2550
F 0 "R4" H 3520 2596 50  0000 L CNN
F 1 "820" H 3520 2505 50  0000 L CNN
F 2 "" V 3380 2550 50  0001 C CNN
F 3 "~" H 3450 2550 50  0001 C CNN
	1    3450 2550
	1    0    0    -1  
$EndComp
$Comp
L Device:R R3
U 1 1 5DD35C6C
P 3450 1750
F 0 "R3" H 3520 1796 50  0000 L CNN
F 1 "12k" H 3520 1705 50  0000 L CNN
F 2 "" V 3380 1750 50  0001 C CNN
F 3 "~" H 3450 1750 50  0001 C CNN
	1    3450 1750
	1    0    0    -1  
$EndComp
Wire Wire Line
	3450 1900 3450 2000
Wire Wire Line
	3450 2400 3450 2300
$Comp
L power:+12V #PWR09
U 1 1 5DD7F100
P 3450 1550
F 0 "#PWR09" H 3450 1400 50  0001 C CNN
F 1 "+12V" H 3465 1723 50  0000 C CNN
F 2 "" H 3450 1550 50  0001 C CNN
F 3 "" H 3450 1550 50  0001 C CNN
	1    3450 1550
	1    0    0    -1  
$EndComp
$Comp
L power:GND #PWR010
U 1 1 5DD7FB72
P 3450 2750
F 0 "#PWR010" H 3450 2500 50  0001 C CNN
F 1 "GND" H 3455 2577 50  0000 C CNN
F 2 "" H 3450 2750 50  0001 C CNN
F 3 "" H 3450 2750 50  0001 C CNN
	1    3450 2750
	1    0    0    -1  
$EndComp
Wire Wire Line
	3450 1600 3450 1550
Wire Wire Line
	3450 2750 3450 2700
$Comp
L power:+12V #PWR017
U 1 1 5DDBCC2B
P 4900 1100
F 0 "#PWR017" H 4900 950 50  0001 C CNN
F 1 "+12V" H 4915 1273 50  0000 C CNN
F 2 "" H 4900 1100 50  0001 C CNN
F 3 "" H 4900 1100 50  0001 C CNN
	1    4900 1100
	1    0    0    -1  
$EndComp
Wire Wire Line
	4900 1300 4900 1150
$Comp
L power:GND #PWR012
U 1 1 5DDE1A97
P 3950 2250
F 0 "#PWR012" H 3950 2000 50  0001 C CNN
F 1 "GND" H 3955 2077 50  0000 C CNN
F 2 "" H 3950 2250 50  0001 C CNN
F 3 "" H 3950 2250 50  0001 C CNN
	1    3950 2250
	1    0    0    -1  
$EndComp
Wire Wire Line
	3950 2200 4400 2200
Wire Wire Line
	3950 2250 3950 2200
$Comp
L Device:R R12
U 1 1 5DE12E07
P 5550 1400
F 0 "R12" H 5620 1446 50  0000 L CNN
F 1 "10k" H 5620 1355 50  0000 L CNN
F 2 "Resistor_THT:R_Axial_DIN0207_L6.3mm_D2.5mm_P10.16mm_Horizontal" V 5480 1400 50  0001 C CNN
F 3 "~" H 5550 1400 50  0001 C CNN
	1    5550 1400
	1    0    0    -1  
$EndComp
Wire Wire Line
	5550 1800 5550 1550
Wire Wire Line
	5400 1800 5550 1800
Wire Wire Line
	5550 1250 5550 1150
Wire Wire Line
	5550 1150 4900 1150
Connection ~ 4900 1150
Wire Wire Line
	4900 1150 4900 1100
$Comp
L Device:R R8
U 1 1 5DE59C87
P 4100 2550
F 0 "R8" H 4170 2596 50  0000 L CNN
F 1 "100" H 4170 2505 50  0000 L CNN
F 2 "Resistor_THT:R_Axial_DIN0207_L6.3mm_D2.5mm_P10.16mm_Horizontal" V 4030 2550 50  0001 C CNN
F 3 "~" H 4100 2550 50  0001 C CNN
	1    4100 2550
	1    0    0    -1  
$EndComp
$Comp
L Device:R_POT RV3
U 1 1 5DE59C8D
P 4100 2950
F 0 "RV3" H 4030 2996 50  0000 R CNN
F 1 "10k" H 4030 2905 50  0000 R CNN
F 2 "Potentiometer_THT:Potentiometer_Bourns_3296W_Vertical" H 4100 2950 50  0001 C CNN
F 3 "~" H 4100 2950 50  0001 C CNN
	1    4100 2950
	1    0    0    -1  
$EndComp
$Comp
L power:GND #PWR013
U 1 1 5DE59C93
P 4100 3200
F 0 "#PWR013" H 4100 2950 50  0001 C CNN
F 1 "GND" H 4105 3027 50  0000 C CNN
F 2 "" H 4100 3200 50  0001 C CNN
F 3 "" H 4100 3200 50  0001 C CNN
	1    4100 3200
	1    0    0    -1  
$EndComp
Wire Wire Line
	4100 3200 4100 3150
Wire Wire Line
	4250 2950 4300 2950
Wire Wire Line
	4300 3150 4100 3150
Connection ~ 4100 3150
Wire Wire Line
	4100 3150 4100 3100
Wire Wire Line
	4100 2800 4100 2700
Wire Wire Line
	4400 2300 4100 2300
Wire Wire Line
	4100 2300 4100 2400
Wire Wire Line
	4300 3150 4300 2950
$Comp
L Device:C C5
U 1 1 5DEF6743
P 4550 2950
F 0 "C5" H 4665 2996 50  0000 L CNN
F 1 "10nF" H 4665 2905 50  0000 L CNN
F 2 "Capacitor_THT:C_Disc_D5.0mm_W2.5mm_P5.00mm" H 4588 2800 50  0001 C CNN
F 3 "~" H 4550 2950 50  0001 C CNN
	1    4550 2950
	1    0    0    -1  
$EndComp
$Comp
L power:GND #PWR014
U 1 1 5DEF6749
P 4550 3200
F 0 "#PWR014" H 4550 2950 50  0001 C CNN
F 1 "GND" H 4555 3027 50  0000 C CNN
F 2 "" H 4550 3200 50  0001 C CNN
F 3 "" H 4550 3200 50  0001 C CNN
	1    4550 3200
	1    0    0    -1  
$EndComp
Wire Wire Line
	4550 3100 4550 3200
Wire Wire Line
	4400 2400 4350 2400
Wire Wire Line
	4350 2400 4350 2700
Wire Wire Line
	4350 2700 4550 2700
Wire Wire Line
	4550 2700 4550 2800
Wire Wire Line
	5900 1300 5900 1800
Wire Wire Line
	5550 1800 5900 1800
Connection ~ 5550 1800
Connection ~ 5900 1800
Wire Wire Line
	5900 1800 5900 2350
$Comp
L Device:R R10
U 1 1 5E085669
P 4300 6550
F 0 "R10" H 4370 6596 50  0000 L CNN
F 1 "560" H 4370 6505 50  0000 L CNN
F 2 "Resistor_THT:R_Axial_DIN0207_L6.3mm_D2.5mm_P10.16mm_Horizontal" V 4230 6550 50  0001 C CNN
F 3 "~" H 4300 6550 50  0001 C CNN
	1    4300 6550
	1    0    0    -1  
$EndComp
Wire Wire Line
	4300 7200 4300 7050
Wire Wire Line
	4300 6750 4300 6700
$Comp
L Device:R R11
U 1 1 5E085671
P 4850 6700
F 0 "R11" H 4920 6746 50  0000 L CNN
F 1 "10k" H 4920 6655 50  0000 L CNN
F 2 "Resistor_THT:R_Axial_DIN0207_L6.3mm_D2.5mm_P10.16mm_Horizontal" V 4780 6700 50  0001 C CNN
F 3 "~" H 4850 6700 50  0001 C CNN
	1    4850 6700
	1    0    0    -1  
$EndComp
Wire Wire Line
	4300 6300 4300 6350
$Comp
L Device:LED D4
U 1 1 5E08567A
P 4300 6900
F 0 "D4" V 4339 6783 50  0000 R CNN
F 1 "Proteccion" V 4248 6783 50  0000 R CNN
F 2 "LED_THT:LED_D5.0mm" H 4300 6900 50  0001 C CNN
F 3 "~" H 4300 6900 50  0001 C CNN
	1    4300 6900
	0    -1   -1   0   
$EndComp
Text GLabel 4850 7200 3    50   Input ~ 0
TIERRA
Wire Wire Line
	4850 7200 4850 6850
Wire Wire Line
	4850 6550 4850 6350
Wire Wire Line
	4850 6350 4300 6350
Connection ~ 4300 6350
Wire Wire Line
	4300 6350 4300 6400
Wire Wire Line
	4850 6350 4850 6250
Connection ~ 4850 6350
Wire Wire Line
	4850 5850 4850 5800
Wire Wire Line
	4850 5800 4300 5800
Text GLabel 4600 5800 1    50   Input ~ 0
VCC
Wire Wire Line
	4150 6250 4100 6250
Wire Wire Line
	4100 6250 4100 6500
Wire Wire Line
	4100 6500 4050 6500
$EndSCHEMATC
